$date
	Tue Jun 30 12:42:34 2020
$end
$version
	Icarus Verilog
$end
$timescale
	1ps
$end
$scope module Counter_tb $end
$var wire 16 ! out [15:0] $end
$var reg 1 " clk $end
$var reg 1 # inc $end
$var reg 1 $ reset $end
$scope module COUNTER $end
$var wire 1 " clk $end
$var wire 1 # inc $end
$var wire 1 $ reset $end
$var wire 16 % out [15:0] $end
$var wire 16 & nextinc [15:0] $end
$var wire 16 ' next [15:0] $end
$var wire 1 ( incOrLoad $end
$scope module COUNTER $end
$var wire 1 " clk $end
$var wire 16 ) out [15:0] $end
$var wire 1 ( load $end
$var wire 16 * in [15:0] $end
$scope module BIT0 $end
$var wire 1 " clk $end
$var wire 1 + in $end
$var wire 1 , out $end
$var wire 1 ( load $end
$var wire 1 - dffin $end
$scope module DFF $end
$var wire 1 " clk $end
$var wire 1 - in $end
$var reg 1 , out $end
$upscope $end
$scope module MUX $end
$var wire 1 , a $end
$var wire 1 + b $end
$var wire 1 ( sel $end
$var wire 1 . sb $end
$var wire 1 / sa $end
$var wire 1 - out $end
$var wire 1 0 nsel $end
$scope module AND1 $end
$var wire 1 , a $end
$var wire 1 / out $end
$var wire 1 0 b $end
$upscope $end
$scope module AND2 $end
$var wire 1 + a $end
$var wire 1 . out $end
$var wire 1 ( b $end
$upscope $end
$scope module NOT $end
$var wire 1 0 out $end
$var wire 1 ( in $end
$upscope $end
$scope module OR $end
$var wire 1 / a $end
$var wire 1 . b $end
$var wire 1 - out $end
$upscope $end
$upscope $end
$upscope $end
$scope module BIT1 $end
$var wire 1 " clk $end
$var wire 1 1 in $end
$var wire 1 2 out $end
$var wire 1 ( load $end
$var wire 1 3 dffin $end
$scope module DFF $end
$var wire 1 " clk $end
$var wire 1 3 in $end
$var reg 1 2 out $end
$upscope $end
$scope module MUX $end
$var wire 1 2 a $end
$var wire 1 1 b $end
$var wire 1 ( sel $end
$var wire 1 4 sb $end
$var wire 1 5 sa $end
$var wire 1 3 out $end
$var wire 1 6 nsel $end
$scope module AND1 $end
$var wire 1 2 a $end
$var wire 1 5 out $end
$var wire 1 6 b $end
$upscope $end
$scope module AND2 $end
$var wire 1 1 a $end
$var wire 1 4 out $end
$var wire 1 ( b $end
$upscope $end
$scope module NOT $end
$var wire 1 6 out $end
$var wire 1 ( in $end
$upscope $end
$scope module OR $end
$var wire 1 5 a $end
$var wire 1 4 b $end
$var wire 1 3 out $end
$upscope $end
$upscope $end
$upscope $end
$scope module BIT10 $end
$var wire 1 " clk $end
$var wire 1 7 in $end
$var wire 1 8 out $end
$var wire 1 ( load $end
$var wire 1 9 dffin $end
$scope module DFF $end
$var wire 1 " clk $end
$var wire 1 9 in $end
$var reg 1 8 out $end
$upscope $end
$scope module MUX $end
$var wire 1 8 a $end
$var wire 1 7 b $end
$var wire 1 ( sel $end
$var wire 1 : sb $end
$var wire 1 ; sa $end
$var wire 1 9 out $end
$var wire 1 < nsel $end
$scope module AND1 $end
$var wire 1 8 a $end
$var wire 1 ; out $end
$var wire 1 < b $end
$upscope $end
$scope module AND2 $end
$var wire 1 7 a $end
$var wire 1 : out $end
$var wire 1 ( b $end
$upscope $end
$scope module NOT $end
$var wire 1 < out $end
$var wire 1 ( in $end
$upscope $end
$scope module OR $end
$var wire 1 ; a $end
$var wire 1 : b $end
$var wire 1 9 out $end
$upscope $end
$upscope $end
$upscope $end
$scope module BIT11 $end
$var wire 1 " clk $end
$var wire 1 = in $end
$var wire 1 > out $end
$var wire 1 ( load $end
$var wire 1 ? dffin $end
$scope module DFF $end
$var wire 1 " clk $end
$var wire 1 ? in $end
$var reg 1 > out $end
$upscope $end
$scope module MUX $end
$var wire 1 > a $end
$var wire 1 = b $end
$var wire 1 ( sel $end
$var wire 1 @ sb $end
$var wire 1 A sa $end
$var wire 1 ? out $end
$var wire 1 B nsel $end
$scope module AND1 $end
$var wire 1 > a $end
$var wire 1 A out $end
$var wire 1 B b $end
$upscope $end
$scope module AND2 $end
$var wire 1 = a $end
$var wire 1 @ out $end
$var wire 1 ( b $end
$upscope $end
$scope module NOT $end
$var wire 1 B out $end
$var wire 1 ( in $end
$upscope $end
$scope module OR $end
$var wire 1 A a $end
$var wire 1 @ b $end
$var wire 1 ? out $end
$upscope $end
$upscope $end
$upscope $end
$scope module BIT12 $end
$var wire 1 " clk $end
$var wire 1 C in $end
$var wire 1 D out $end
$var wire 1 ( load $end
$var wire 1 E dffin $end
$scope module DFF $end
$var wire 1 " clk $end
$var wire 1 E in $end
$var reg 1 D out $end
$upscope $end
$scope module MUX $end
$var wire 1 D a $end
$var wire 1 C b $end
$var wire 1 ( sel $end
$var wire 1 F sb $end
$var wire 1 G sa $end
$var wire 1 E out $end
$var wire 1 H nsel $end
$scope module AND1 $end
$var wire 1 D a $end
$var wire 1 G out $end
$var wire 1 H b $end
$upscope $end
$scope module AND2 $end
$var wire 1 C a $end
$var wire 1 F out $end
$var wire 1 ( b $end
$upscope $end
$scope module NOT $end
$var wire 1 H out $end
$var wire 1 ( in $end
$upscope $end
$scope module OR $end
$var wire 1 G a $end
$var wire 1 F b $end
$var wire 1 E out $end
$upscope $end
$upscope $end
$upscope $end
$scope module BIT13 $end
$var wire 1 " clk $end
$var wire 1 I in $end
$var wire 1 J out $end
$var wire 1 ( load $end
$var wire 1 K dffin $end
$scope module DFF $end
$var wire 1 " clk $end
$var wire 1 K in $end
$var reg 1 J out $end
$upscope $end
$scope module MUX $end
$var wire 1 J a $end
$var wire 1 I b $end
$var wire 1 ( sel $end
$var wire 1 L sb $end
$var wire 1 M sa $end
$var wire 1 K out $end
$var wire 1 N nsel $end
$scope module AND1 $end
$var wire 1 J a $end
$var wire 1 M out $end
$var wire 1 N b $end
$upscope $end
$scope module AND2 $end
$var wire 1 I a $end
$var wire 1 L out $end
$var wire 1 ( b $end
$upscope $end
$scope module NOT $end
$var wire 1 N out $end
$var wire 1 ( in $end
$upscope $end
$scope module OR $end
$var wire 1 M a $end
$var wire 1 L b $end
$var wire 1 K out $end
$upscope $end
$upscope $end
$upscope $end
$scope module BIT14 $end
$var wire 1 " clk $end
$var wire 1 O in $end
$var wire 1 P out $end
$var wire 1 ( load $end
$var wire 1 Q dffin $end
$scope module DFF $end
$var wire 1 " clk $end
$var wire 1 Q in $end
$var reg 1 P out $end
$upscope $end
$scope module MUX $end
$var wire 1 P a $end
$var wire 1 O b $end
$var wire 1 ( sel $end
$var wire 1 R sb $end
$var wire 1 S sa $end
$var wire 1 Q out $end
$var wire 1 T nsel $end
$scope module AND1 $end
$var wire 1 P a $end
$var wire 1 S out $end
$var wire 1 T b $end
$upscope $end
$scope module AND2 $end
$var wire 1 O a $end
$var wire 1 R out $end
$var wire 1 ( b $end
$upscope $end
$scope module NOT $end
$var wire 1 T out $end
$var wire 1 ( in $end
$upscope $end
$scope module OR $end
$var wire 1 S a $end
$var wire 1 R b $end
$var wire 1 Q out $end
$upscope $end
$upscope $end
$upscope $end
$scope module BIT15 $end
$var wire 1 " clk $end
$var wire 1 U in $end
$var wire 1 V out $end
$var wire 1 ( load $end
$var wire 1 W dffin $end
$scope module DFF $end
$var wire 1 " clk $end
$var wire 1 W in $end
$var reg 1 V out $end
$upscope $end
$scope module MUX $end
$var wire 1 V a $end
$var wire 1 U b $end
$var wire 1 ( sel $end
$var wire 1 X sb $end
$var wire 1 Y sa $end
$var wire 1 W out $end
$var wire 1 Z nsel $end
$scope module AND1 $end
$var wire 1 V a $end
$var wire 1 Y out $end
$var wire 1 Z b $end
$upscope $end
$scope module AND2 $end
$var wire 1 U a $end
$var wire 1 X out $end
$var wire 1 ( b $end
$upscope $end
$scope module NOT $end
$var wire 1 Z out $end
$var wire 1 ( in $end
$upscope $end
$scope module OR $end
$var wire 1 Y a $end
$var wire 1 X b $end
$var wire 1 W out $end
$upscope $end
$upscope $end
$upscope $end
$scope module BIT2 $end
$var wire 1 " clk $end
$var wire 1 [ in $end
$var wire 1 \ out $end
$var wire 1 ( load $end
$var wire 1 ] dffin $end
$scope module DFF $end
$var wire 1 " clk $end
$var wire 1 ] in $end
$var reg 1 \ out $end
$upscope $end
$scope module MUX $end
$var wire 1 \ a $end
$var wire 1 [ b $end
$var wire 1 ( sel $end
$var wire 1 ^ sb $end
$var wire 1 _ sa $end
$var wire 1 ] out $end
$var wire 1 ` nsel $end
$scope module AND1 $end
$var wire 1 \ a $end
$var wire 1 _ out $end
$var wire 1 ` b $end
$upscope $end
$scope module AND2 $end
$var wire 1 [ a $end
$var wire 1 ^ out $end
$var wire 1 ( b $end
$upscope $end
$scope module NOT $end
$var wire 1 ` out $end
$var wire 1 ( in $end
$upscope $end
$scope module OR $end
$var wire 1 _ a $end
$var wire 1 ^ b $end
$var wire 1 ] out $end
$upscope $end
$upscope $end
$upscope $end
$scope module BIT3 $end
$var wire 1 " clk $end
$var wire 1 a in $end
$var wire 1 b out $end
$var wire 1 ( load $end
$var wire 1 c dffin $end
$scope module DFF $end
$var wire 1 " clk $end
$var wire 1 c in $end
$var reg 1 b out $end
$upscope $end
$scope module MUX $end
$var wire 1 b a $end
$var wire 1 a b $end
$var wire 1 ( sel $end
$var wire 1 d sb $end
$var wire 1 e sa $end
$var wire 1 c out $end
$var wire 1 f nsel $end
$scope module AND1 $end
$var wire 1 b a $end
$var wire 1 e out $end
$var wire 1 f b $end
$upscope $end
$scope module AND2 $end
$var wire 1 a a $end
$var wire 1 d out $end
$var wire 1 ( b $end
$upscope $end
$scope module NOT $end
$var wire 1 f out $end
$var wire 1 ( in $end
$upscope $end
$scope module OR $end
$var wire 1 e a $end
$var wire 1 d b $end
$var wire 1 c out $end
$upscope $end
$upscope $end
$upscope $end
$scope module BIT4 $end
$var wire 1 " clk $end
$var wire 1 g in $end
$var wire 1 h out $end
$var wire 1 ( load $end
$var wire 1 i dffin $end
$scope module DFF $end
$var wire 1 " clk $end
$var wire 1 i in $end
$var reg 1 h out $end
$upscope $end
$scope module MUX $end
$var wire 1 h a $end
$var wire 1 g b $end
$var wire 1 ( sel $end
$var wire 1 j sb $end
$var wire 1 k sa $end
$var wire 1 i out $end
$var wire 1 l nsel $end
$scope module AND1 $end
$var wire 1 h a $end
$var wire 1 k out $end
$var wire 1 l b $end
$upscope $end
$scope module AND2 $end
$var wire 1 g a $end
$var wire 1 j out $end
$var wire 1 ( b $end
$upscope $end
$scope module NOT $end
$var wire 1 l out $end
$var wire 1 ( in $end
$upscope $end
$scope module OR $end
$var wire 1 k a $end
$var wire 1 j b $end
$var wire 1 i out $end
$upscope $end
$upscope $end
$upscope $end
$scope module BIT5 $end
$var wire 1 " clk $end
$var wire 1 m in $end
$var wire 1 n out $end
$var wire 1 ( load $end
$var wire 1 o dffin $end
$scope module DFF $end
$var wire 1 " clk $end
$var wire 1 o in $end
$var reg 1 n out $end
$upscope $end
$scope module MUX $end
$var wire 1 n a $end
$var wire 1 m b $end
$var wire 1 ( sel $end
$var wire 1 p sb $end
$var wire 1 q sa $end
$var wire 1 o out $end
$var wire 1 r nsel $end
$scope module AND1 $end
$var wire 1 n a $end
$var wire 1 q out $end
$var wire 1 r b $end
$upscope $end
$scope module AND2 $end
$var wire 1 m a $end
$var wire 1 p out $end
$var wire 1 ( b $end
$upscope $end
$scope module NOT $end
$var wire 1 r out $end
$var wire 1 ( in $end
$upscope $end
$scope module OR $end
$var wire 1 q a $end
$var wire 1 p b $end
$var wire 1 o out $end
$upscope $end
$upscope $end
$upscope $end
$scope module BIT6 $end
$var wire 1 " clk $end
$var wire 1 s in $end
$var wire 1 t out $end
$var wire 1 ( load $end
$var wire 1 u dffin $end
$scope module DFF $end
$var wire 1 " clk $end
$var wire 1 u in $end
$var reg 1 t out $end
$upscope $end
$scope module MUX $end
$var wire 1 t a $end
$var wire 1 s b $end
$var wire 1 ( sel $end
$var wire 1 v sb $end
$var wire 1 w sa $end
$var wire 1 u out $end
$var wire 1 x nsel $end
$scope module AND1 $end
$var wire 1 t a $end
$var wire 1 w out $end
$var wire 1 x b $end
$upscope $end
$scope module AND2 $end
$var wire 1 s a $end
$var wire 1 v out $end
$var wire 1 ( b $end
$upscope $end
$scope module NOT $end
$var wire 1 x out $end
$var wire 1 ( in $end
$upscope $end
$scope module OR $end
$var wire 1 w a $end
$var wire 1 v b $end
$var wire 1 u out $end
$upscope $end
$upscope $end
$upscope $end
$scope module BIT7 $end
$var wire 1 " clk $end
$var wire 1 y in $end
$var wire 1 z out $end
$var wire 1 ( load $end
$var wire 1 { dffin $end
$scope module DFF $end
$var wire 1 " clk $end
$var wire 1 { in $end
$var reg 1 z out $end
$upscope $end
$scope module MUX $end
$var wire 1 z a $end
$var wire 1 y b $end
$var wire 1 ( sel $end
$var wire 1 | sb $end
$var wire 1 } sa $end
$var wire 1 { out $end
$var wire 1 ~ nsel $end
$scope module AND1 $end
$var wire 1 z a $end
$var wire 1 } out $end
$var wire 1 ~ b $end
$upscope $end
$scope module AND2 $end
$var wire 1 y a $end
$var wire 1 | out $end
$var wire 1 ( b $end
$upscope $end
$scope module NOT $end
$var wire 1 ~ out $end
$var wire 1 ( in $end
$upscope $end
$scope module OR $end
$var wire 1 } a $end
$var wire 1 | b $end
$var wire 1 { out $end
$upscope $end
$upscope $end
$upscope $end
$scope module BIT8 $end
$var wire 1 " clk $end
$var wire 1 !" in $end
$var wire 1 "" out $end
$var wire 1 ( load $end
$var wire 1 #" dffin $end
$scope module DFF $end
$var wire 1 " clk $end
$var wire 1 #" in $end
$var reg 1 "" out $end
$upscope $end
$scope module MUX $end
$var wire 1 "" a $end
$var wire 1 !" b $end
$var wire 1 ( sel $end
$var wire 1 $" sb $end
$var wire 1 %" sa $end
$var wire 1 #" out $end
$var wire 1 &" nsel $end
$scope module AND1 $end
$var wire 1 "" a $end
$var wire 1 %" out $end
$var wire 1 &" b $end
$upscope $end
$scope module AND2 $end
$var wire 1 !" a $end
$var wire 1 $" out $end
$var wire 1 ( b $end
$upscope $end
$scope module NOT $end
$var wire 1 &" out $end
$var wire 1 ( in $end
$upscope $end
$scope module OR $end
$var wire 1 %" a $end
$var wire 1 $" b $end
$var wire 1 #" out $end
$upscope $end
$upscope $end
$upscope $end
$scope module BIT9 $end
$var wire 1 " clk $end
$var wire 1 '" in $end
$var wire 1 (" out $end
$var wire 1 ( load $end
$var wire 1 )" dffin $end
$scope module DFF $end
$var wire 1 " clk $end
$var wire 1 )" in $end
$var reg 1 (" out $end
$upscope $end
$scope module MUX $end
$var wire 1 (" a $end
$var wire 1 '" b $end
$var wire 1 ( sel $end
$var wire 1 *" sb $end
$var wire 1 +" sa $end
$var wire 1 )" out $end
$var wire 1 ," nsel $end
$scope module AND1 $end
$var wire 1 (" a $end
$var wire 1 +" out $end
$var wire 1 ," b $end
$upscope $end
$scope module AND2 $end
$var wire 1 '" a $end
$var wire 1 *" out $end
$var wire 1 ( b $end
$upscope $end
$scope module NOT $end
$var wire 1 ," out $end
$var wire 1 ( in $end
$upscope $end
$scope module OR $end
$var wire 1 +" a $end
$var wire 1 *" b $end
$var wire 1 )" out $end
$upscope $end
$upscope $end
$upscope $end
$upscope $end
$scope module INC $end
$var wire 16 -" in [15:0] $end
$var wire 16 ." out [15:0] $end
$var wire 1 /" c9 $end
$var wire 1 0" c8 $end
$var wire 1 1" c7 $end
$var wire 1 2" c6 $end
$var wire 1 3" c5 $end
$var wire 1 4" c4 $end
$var wire 1 5" c3 $end
$var wire 1 6" c2 $end
$var wire 1 7" c15 $end
$var wire 1 8" c14 $end
$var wire 1 9" c13 $end
$var wire 1 :" c12 $end
$var wire 1 ;" c11 $end
$var wire 1 <" c10 $end
$var wire 1 =" c1 $end
$var wire 1 >" c0 $end
$scope module HA0 $end
$var wire 1 ?" a $end
$var wire 1 @" b $end
$var wire 1 A" sum $end
$var wire 1 >" carry $end
$scope module AND $end
$var wire 1 ?" a $end
$var wire 1 @" b $end
$var wire 1 >" out $end
$upscope $end
$scope module XOR $end
$var wire 1 ?" a $end
$var wire 1 @" b $end
$var wire 1 A" out $end
$var wire 1 B" or1 $end
$var wire 1 C" nand1 $end
$scope module AND $end
$var wire 1 A" out $end
$var wire 1 C" b $end
$var wire 1 B" a $end
$upscope $end
$scope module NAND $end
$var wire 1 ?" a $end
$var wire 1 @" b $end
$var wire 1 C" out $end
$upscope $end
$scope module OR $end
$var wire 1 ?" a $end
$var wire 1 @" b $end
$var wire 1 B" out $end
$upscope $end
$upscope $end
$upscope $end
$scope module HA1 $end
$var wire 1 D" a $end
$var wire 1 >" b $end
$var wire 1 E" sum $end
$var wire 1 =" carry $end
$scope module AND $end
$var wire 1 D" a $end
$var wire 1 >" b $end
$var wire 1 =" out $end
$upscope $end
$scope module XOR $end
$var wire 1 D" a $end
$var wire 1 >" b $end
$var wire 1 E" out $end
$var wire 1 F" or1 $end
$var wire 1 G" nand1 $end
$scope module AND $end
$var wire 1 E" out $end
$var wire 1 G" b $end
$var wire 1 F" a $end
$upscope $end
$scope module NAND $end
$var wire 1 D" a $end
$var wire 1 >" b $end
$var wire 1 G" out $end
$upscope $end
$scope module OR $end
$var wire 1 D" a $end
$var wire 1 >" b $end
$var wire 1 F" out $end
$upscope $end
$upscope $end
$upscope $end
$scope module HA10 $end
$var wire 1 H" a $end
$var wire 1 I" sum $end
$var wire 1 <" carry $end
$var wire 1 /" b $end
$scope module AND $end
$var wire 1 H" a $end
$var wire 1 <" out $end
$var wire 1 /" b $end
$upscope $end
$scope module XOR $end
$var wire 1 H" a $end
$var wire 1 I" out $end
$var wire 1 J" or1 $end
$var wire 1 K" nand1 $end
$var wire 1 /" b $end
$scope module AND $end
$var wire 1 I" out $end
$var wire 1 K" b $end
$var wire 1 J" a $end
$upscope $end
$scope module NAND $end
$var wire 1 H" a $end
$var wire 1 K" out $end
$var wire 1 /" b $end
$upscope $end
$scope module OR $end
$var wire 1 H" a $end
$var wire 1 J" out $end
$var wire 1 /" b $end
$upscope $end
$upscope $end
$upscope $end
$scope module HA11 $end
$var wire 1 L" a $end
$var wire 1 <" b $end
$var wire 1 M" sum $end
$var wire 1 ;" carry $end
$scope module AND $end
$var wire 1 L" a $end
$var wire 1 <" b $end
$var wire 1 ;" out $end
$upscope $end
$scope module XOR $end
$var wire 1 L" a $end
$var wire 1 <" b $end
$var wire 1 M" out $end
$var wire 1 N" or1 $end
$var wire 1 O" nand1 $end
$scope module AND $end
$var wire 1 M" out $end
$var wire 1 O" b $end
$var wire 1 N" a $end
$upscope $end
$scope module NAND $end
$var wire 1 L" a $end
$var wire 1 <" b $end
$var wire 1 O" out $end
$upscope $end
$scope module OR $end
$var wire 1 L" a $end
$var wire 1 <" b $end
$var wire 1 N" out $end
$upscope $end
$upscope $end
$upscope $end
$scope module HA12 $end
$var wire 1 P" a $end
$var wire 1 ;" b $end
$var wire 1 Q" sum $end
$var wire 1 :" carry $end
$scope module AND $end
$var wire 1 P" a $end
$var wire 1 ;" b $end
$var wire 1 :" out $end
$upscope $end
$scope module XOR $end
$var wire 1 P" a $end
$var wire 1 ;" b $end
$var wire 1 Q" out $end
$var wire 1 R" or1 $end
$var wire 1 S" nand1 $end
$scope module AND $end
$var wire 1 Q" out $end
$var wire 1 S" b $end
$var wire 1 R" a $end
$upscope $end
$scope module NAND $end
$var wire 1 P" a $end
$var wire 1 ;" b $end
$var wire 1 S" out $end
$upscope $end
$scope module OR $end
$var wire 1 P" a $end
$var wire 1 ;" b $end
$var wire 1 R" out $end
$upscope $end
$upscope $end
$upscope $end
$scope module HA13 $end
$var wire 1 T" a $end
$var wire 1 :" b $end
$var wire 1 U" sum $end
$var wire 1 9" carry $end
$scope module AND $end
$var wire 1 T" a $end
$var wire 1 :" b $end
$var wire 1 9" out $end
$upscope $end
$scope module XOR $end
$var wire 1 T" a $end
$var wire 1 :" b $end
$var wire 1 U" out $end
$var wire 1 V" or1 $end
$var wire 1 W" nand1 $end
$scope module AND $end
$var wire 1 U" out $end
$var wire 1 W" b $end
$var wire 1 V" a $end
$upscope $end
$scope module NAND $end
$var wire 1 T" a $end
$var wire 1 :" b $end
$var wire 1 W" out $end
$upscope $end
$scope module OR $end
$var wire 1 T" a $end
$var wire 1 :" b $end
$var wire 1 V" out $end
$upscope $end
$upscope $end
$upscope $end
$scope module HA14 $end
$var wire 1 X" a $end
$var wire 1 9" b $end
$var wire 1 Y" sum $end
$var wire 1 8" carry $end
$scope module AND $end
$var wire 1 X" a $end
$var wire 1 9" b $end
$var wire 1 8" out $end
$upscope $end
$scope module XOR $end
$var wire 1 X" a $end
$var wire 1 9" b $end
$var wire 1 Y" out $end
$var wire 1 Z" or1 $end
$var wire 1 [" nand1 $end
$scope module AND $end
$var wire 1 Y" out $end
$var wire 1 [" b $end
$var wire 1 Z" a $end
$upscope $end
$scope module NAND $end
$var wire 1 X" a $end
$var wire 1 9" b $end
$var wire 1 [" out $end
$upscope $end
$scope module OR $end
$var wire 1 X" a $end
$var wire 1 9" b $end
$var wire 1 Z" out $end
$upscope $end
$upscope $end
$upscope $end
$scope module HA15 $end
$var wire 1 \" a $end
$var wire 1 8" b $end
$var wire 1 ]" sum $end
$var wire 1 7" carry $end
$scope module AND $end
$var wire 1 \" a $end
$var wire 1 8" b $end
$var wire 1 7" out $end
$upscope $end
$scope module XOR $end
$var wire 1 \" a $end
$var wire 1 8" b $end
$var wire 1 ]" out $end
$var wire 1 ^" or1 $end
$var wire 1 _" nand1 $end
$scope module AND $end
$var wire 1 ]" out $end
$var wire 1 _" b $end
$var wire 1 ^" a $end
$upscope $end
$scope module NAND $end
$var wire 1 \" a $end
$var wire 1 8" b $end
$var wire 1 _" out $end
$upscope $end
$scope module OR $end
$var wire 1 \" a $end
$var wire 1 8" b $end
$var wire 1 ^" out $end
$upscope $end
$upscope $end
$upscope $end
$scope module HA2 $end
$var wire 1 `" a $end
$var wire 1 =" b $end
$var wire 1 a" sum $end
$var wire 1 6" carry $end
$scope module AND $end
$var wire 1 `" a $end
$var wire 1 =" b $end
$var wire 1 6" out $end
$upscope $end
$scope module XOR $end
$var wire 1 `" a $end
$var wire 1 =" b $end
$var wire 1 a" out $end
$var wire 1 b" or1 $end
$var wire 1 c" nand1 $end
$scope module AND $end
$var wire 1 a" out $end
$var wire 1 c" b $end
$var wire 1 b" a $end
$upscope $end
$scope module NAND $end
$var wire 1 `" a $end
$var wire 1 =" b $end
$var wire 1 c" out $end
$upscope $end
$scope module OR $end
$var wire 1 `" a $end
$var wire 1 =" b $end
$var wire 1 b" out $end
$upscope $end
$upscope $end
$upscope $end
$scope module HA3 $end
$var wire 1 d" a $end
$var wire 1 6" b $end
$var wire 1 e" sum $end
$var wire 1 5" carry $end
$scope module AND $end
$var wire 1 d" a $end
$var wire 1 6" b $end
$var wire 1 5" out $end
$upscope $end
$scope module XOR $end
$var wire 1 d" a $end
$var wire 1 6" b $end
$var wire 1 e" out $end
$var wire 1 f" or1 $end
$var wire 1 g" nand1 $end
$scope module AND $end
$var wire 1 e" out $end
$var wire 1 g" b $end
$var wire 1 f" a $end
$upscope $end
$scope module NAND $end
$var wire 1 d" a $end
$var wire 1 6" b $end
$var wire 1 g" out $end
$upscope $end
$scope module OR $end
$var wire 1 d" a $end
$var wire 1 6" b $end
$var wire 1 f" out $end
$upscope $end
$upscope $end
$upscope $end
$scope module HA4 $end
$var wire 1 h" a $end
$var wire 1 5" b $end
$var wire 1 i" sum $end
$var wire 1 4" carry $end
$scope module AND $end
$var wire 1 h" a $end
$var wire 1 5" b $end
$var wire 1 4" out $end
$upscope $end
$scope module XOR $end
$var wire 1 h" a $end
$var wire 1 5" b $end
$var wire 1 i" out $end
$var wire 1 j" or1 $end
$var wire 1 k" nand1 $end
$scope module AND $end
$var wire 1 i" out $end
$var wire 1 k" b $end
$var wire 1 j" a $end
$upscope $end
$scope module NAND $end
$var wire 1 h" a $end
$var wire 1 5" b $end
$var wire 1 k" out $end
$upscope $end
$scope module OR $end
$var wire 1 h" a $end
$var wire 1 5" b $end
$var wire 1 j" out $end
$upscope $end
$upscope $end
$upscope $end
$scope module HA5 $end
$var wire 1 l" a $end
$var wire 1 4" b $end
$var wire 1 m" sum $end
$var wire 1 3" carry $end
$scope module AND $end
$var wire 1 l" a $end
$var wire 1 4" b $end
$var wire 1 3" out $end
$upscope $end
$scope module XOR $end
$var wire 1 l" a $end
$var wire 1 4" b $end
$var wire 1 m" out $end
$var wire 1 n" or1 $end
$var wire 1 o" nand1 $end
$scope module AND $end
$var wire 1 m" out $end
$var wire 1 o" b $end
$var wire 1 n" a $end
$upscope $end
$scope module NAND $end
$var wire 1 l" a $end
$var wire 1 4" b $end
$var wire 1 o" out $end
$upscope $end
$scope module OR $end
$var wire 1 l" a $end
$var wire 1 4" b $end
$var wire 1 n" out $end
$upscope $end
$upscope $end
$upscope $end
$scope module HA6 $end
$var wire 1 p" a $end
$var wire 1 3" b $end
$var wire 1 q" sum $end
$var wire 1 2" carry $end
$scope module AND $end
$var wire 1 p" a $end
$var wire 1 3" b $end
$var wire 1 2" out $end
$upscope $end
$scope module XOR $end
$var wire 1 p" a $end
$var wire 1 3" b $end
$var wire 1 q" out $end
$var wire 1 r" or1 $end
$var wire 1 s" nand1 $end
$scope module AND $end
$var wire 1 q" out $end
$var wire 1 s" b $end
$var wire 1 r" a $end
$upscope $end
$scope module NAND $end
$var wire 1 p" a $end
$var wire 1 3" b $end
$var wire 1 s" out $end
$upscope $end
$scope module OR $end
$var wire 1 p" a $end
$var wire 1 3" b $end
$var wire 1 r" out $end
$upscope $end
$upscope $end
$upscope $end
$scope module HA7 $end
$var wire 1 t" a $end
$var wire 1 2" b $end
$var wire 1 u" sum $end
$var wire 1 1" carry $end
$scope module AND $end
$var wire 1 t" a $end
$var wire 1 2" b $end
$var wire 1 1" out $end
$upscope $end
$scope module XOR $end
$var wire 1 t" a $end
$var wire 1 2" b $end
$var wire 1 u" out $end
$var wire 1 v" or1 $end
$var wire 1 w" nand1 $end
$scope module AND $end
$var wire 1 u" out $end
$var wire 1 w" b $end
$var wire 1 v" a $end
$upscope $end
$scope module NAND $end
$var wire 1 t" a $end
$var wire 1 2" b $end
$var wire 1 w" out $end
$upscope $end
$scope module OR $end
$var wire 1 t" a $end
$var wire 1 2" b $end
$var wire 1 v" out $end
$upscope $end
$upscope $end
$upscope $end
$scope module HA8 $end
$var wire 1 x" a $end
$var wire 1 1" b $end
$var wire 1 y" sum $end
$var wire 1 0" carry $end
$scope module AND $end
$var wire 1 x" a $end
$var wire 1 1" b $end
$var wire 1 0" out $end
$upscope $end
$scope module XOR $end
$var wire 1 x" a $end
$var wire 1 1" b $end
$var wire 1 y" out $end
$var wire 1 z" or1 $end
$var wire 1 {" nand1 $end
$scope module AND $end
$var wire 1 y" out $end
$var wire 1 {" b $end
$var wire 1 z" a $end
$upscope $end
$scope module NAND $end
$var wire 1 x" a $end
$var wire 1 1" b $end
$var wire 1 {" out $end
$upscope $end
$scope module OR $end
$var wire 1 x" a $end
$var wire 1 1" b $end
$var wire 1 z" out $end
$upscope $end
$upscope $end
$upscope $end
$scope module HA9 $end
$var wire 1 |" a $end
$var wire 1 0" b $end
$var wire 1 }" sum $end
$var wire 1 /" carry $end
$scope module AND $end
$var wire 1 |" a $end
$var wire 1 0" b $end
$var wire 1 /" out $end
$upscope $end
$scope module XOR $end
$var wire 1 |" a $end
$var wire 1 0" b $end
$var wire 1 }" out $end
$var wire 1 ~" or1 $end
$var wire 1 !# nand1 $end
$scope module AND $end
$var wire 1 }" out $end
$var wire 1 !# b $end
$var wire 1 ~" a $end
$upscope $end
$scope module NAND $end
$var wire 1 |" a $end
$var wire 1 0" b $end
$var wire 1 !# out $end
$upscope $end
$scope module OR $end
$var wire 1 |" a $end
$var wire 1 0" b $end
$var wire 1 ~" out $end
$upscope $end
$upscope $end
$upscope $end
$upscope $end
$scope module MUX $end
$var wire 16 "# a [15:0] $end
$var wire 16 ## b [15:0] $end
$var wire 1 $ sel $end
$var wire 16 $# out [15:0] $end
$scope module MUX0 $end
$var wire 1 %# a $end
$var wire 1 &# b $end
$var wire 1 $ sel $end
$var wire 1 '# sb $end
$var wire 1 (# sa $end
$var wire 1 )# out $end
$var wire 1 *# nsel $end
$scope module AND1 $end
$var wire 1 %# a $end
$var wire 1 (# out $end
$var wire 1 *# b $end
$upscope $end
$scope module AND2 $end
$var wire 1 &# a $end
$var wire 1 $ b $end
$var wire 1 '# out $end
$upscope $end
$scope module NOT $end
$var wire 1 $ in $end
$var wire 1 *# out $end
$upscope $end
$scope module OR $end
$var wire 1 (# a $end
$var wire 1 '# b $end
$var wire 1 )# out $end
$upscope $end
$upscope $end
$scope module MUX1 $end
$var wire 1 +# a $end
$var wire 1 ,# b $end
$var wire 1 $ sel $end
$var wire 1 -# sb $end
$var wire 1 .# sa $end
$var wire 1 /# out $end
$var wire 1 0# nsel $end
$scope module AND1 $end
$var wire 1 +# a $end
$var wire 1 .# out $end
$var wire 1 0# b $end
$upscope $end
$scope module AND2 $end
$var wire 1 ,# a $end
$var wire 1 $ b $end
$var wire 1 -# out $end
$upscope $end
$scope module NOT $end
$var wire 1 $ in $end
$var wire 1 0# out $end
$upscope $end
$scope module OR $end
$var wire 1 .# a $end
$var wire 1 -# b $end
$var wire 1 /# out $end
$upscope $end
$upscope $end
$scope module MUX2 $end
$var wire 1 1# a $end
$var wire 1 2# b $end
$var wire 1 $ sel $end
$var wire 1 3# sb $end
$var wire 1 4# sa $end
$var wire 1 5# out $end
$var wire 1 6# nsel $end
$scope module AND1 $end
$var wire 1 1# a $end
$var wire 1 4# out $end
$var wire 1 6# b $end
$upscope $end
$scope module AND2 $end
$var wire 1 2# a $end
$var wire 1 $ b $end
$var wire 1 3# out $end
$upscope $end
$scope module NOT $end
$var wire 1 $ in $end
$var wire 1 6# out $end
$upscope $end
$scope module OR $end
$var wire 1 4# a $end
$var wire 1 3# b $end
$var wire 1 5# out $end
$upscope $end
$upscope $end
$scope module MUX3 $end
$var wire 1 7# a $end
$var wire 1 8# b $end
$var wire 1 $ sel $end
$var wire 1 9# sb $end
$var wire 1 :# sa $end
$var wire 1 ;# out $end
$var wire 1 <# nsel $end
$scope module AND1 $end
$var wire 1 7# a $end
$var wire 1 :# out $end
$var wire 1 <# b $end
$upscope $end
$scope module AND2 $end
$var wire 1 8# a $end
$var wire 1 $ b $end
$var wire 1 9# out $end
$upscope $end
$scope module NOT $end
$var wire 1 $ in $end
$var wire 1 <# out $end
$upscope $end
$scope module OR $end
$var wire 1 :# a $end
$var wire 1 9# b $end
$var wire 1 ;# out $end
$upscope $end
$upscope $end
$scope module MUX4 $end
$var wire 1 =# a $end
$var wire 1 ># b $end
$var wire 1 $ sel $end
$var wire 1 ?# sb $end
$var wire 1 @# sa $end
$var wire 1 A# out $end
$var wire 1 B# nsel $end
$scope module AND1 $end
$var wire 1 =# a $end
$var wire 1 @# out $end
$var wire 1 B# b $end
$upscope $end
$scope module AND2 $end
$var wire 1 ># a $end
$var wire 1 $ b $end
$var wire 1 ?# out $end
$upscope $end
$scope module NOT $end
$var wire 1 $ in $end
$var wire 1 B# out $end
$upscope $end
$scope module OR $end
$var wire 1 @# a $end
$var wire 1 ?# b $end
$var wire 1 A# out $end
$upscope $end
$upscope $end
$scope module MUX5 $end
$var wire 1 C# a $end
$var wire 1 D# b $end
$var wire 1 $ sel $end
$var wire 1 E# sb $end
$var wire 1 F# sa $end
$var wire 1 G# out $end
$var wire 1 H# nsel $end
$scope module AND1 $end
$var wire 1 C# a $end
$var wire 1 F# out $end
$var wire 1 H# b $end
$upscope $end
$scope module AND2 $end
$var wire 1 D# a $end
$var wire 1 $ b $end
$var wire 1 E# out $end
$upscope $end
$scope module NOT $end
$var wire 1 $ in $end
$var wire 1 H# out $end
$upscope $end
$scope module OR $end
$var wire 1 F# a $end
$var wire 1 E# b $end
$var wire 1 G# out $end
$upscope $end
$upscope $end
$scope module MUX6 $end
$var wire 1 I# a $end
$var wire 1 J# b $end
$var wire 1 $ sel $end
$var wire 1 K# sb $end
$var wire 1 L# sa $end
$var wire 1 M# out $end
$var wire 1 N# nsel $end
$scope module AND1 $end
$var wire 1 I# a $end
$var wire 1 L# out $end
$var wire 1 N# b $end
$upscope $end
$scope module AND2 $end
$var wire 1 J# a $end
$var wire 1 $ b $end
$var wire 1 K# out $end
$upscope $end
$scope module NOT $end
$var wire 1 $ in $end
$var wire 1 N# out $end
$upscope $end
$scope module OR $end
$var wire 1 L# a $end
$var wire 1 K# b $end
$var wire 1 M# out $end
$upscope $end
$upscope $end
$scope module MUX7 $end
$var wire 1 O# a $end
$var wire 1 P# b $end
$var wire 1 $ sel $end
$var wire 1 Q# sb $end
$var wire 1 R# sa $end
$var wire 1 S# out $end
$var wire 1 T# nsel $end
$scope module AND1 $end
$var wire 1 O# a $end
$var wire 1 R# out $end
$var wire 1 T# b $end
$upscope $end
$scope module AND2 $end
$var wire 1 P# a $end
$var wire 1 $ b $end
$var wire 1 Q# out $end
$upscope $end
$scope module NOT $end
$var wire 1 $ in $end
$var wire 1 T# out $end
$upscope $end
$scope module OR $end
$var wire 1 R# a $end
$var wire 1 Q# b $end
$var wire 1 S# out $end
$upscope $end
$upscope $end
$scope module MUX8 $end
$var wire 1 U# a $end
$var wire 1 V# b $end
$var wire 1 $ sel $end
$var wire 1 W# sb $end
$var wire 1 X# sa $end
$var wire 1 Y# out $end
$var wire 1 Z# nsel $end
$scope module AND1 $end
$var wire 1 U# a $end
$var wire 1 X# out $end
$var wire 1 Z# b $end
$upscope $end
$scope module AND2 $end
$var wire 1 V# a $end
$var wire 1 $ b $end
$var wire 1 W# out $end
$upscope $end
$scope module NOT $end
$var wire 1 $ in $end
$var wire 1 Z# out $end
$upscope $end
$scope module OR $end
$var wire 1 X# a $end
$var wire 1 W# b $end
$var wire 1 Y# out $end
$upscope $end
$upscope $end
$scope module MUX9 $end
$var wire 1 [# a $end
$var wire 1 \# b $end
$var wire 1 $ sel $end
$var wire 1 ]# sb $end
$var wire 1 ^# sa $end
$var wire 1 _# out $end
$var wire 1 `# nsel $end
$scope module AND1 $end
$var wire 1 [# a $end
$var wire 1 ^# out $end
$var wire 1 `# b $end
$upscope $end
$scope module AND2 $end
$var wire 1 \# a $end
$var wire 1 $ b $end
$var wire 1 ]# out $end
$upscope $end
$scope module NOT $end
$var wire 1 $ in $end
$var wire 1 `# out $end
$upscope $end
$scope module OR $end
$var wire 1 ^# a $end
$var wire 1 ]# b $end
$var wire 1 _# out $end
$upscope $end
$upscope $end
$scope module MUXA $end
$var wire 1 a# a $end
$var wire 1 b# b $end
$var wire 1 $ sel $end
$var wire 1 c# sb $end
$var wire 1 d# sa $end
$var wire 1 e# out $end
$var wire 1 f# nsel $end
$scope module AND1 $end
$var wire 1 a# a $end
$var wire 1 d# out $end
$var wire 1 f# b $end
$upscope $end
$scope module AND2 $end
$var wire 1 b# a $end
$var wire 1 $ b $end
$var wire 1 c# out $end
$upscope $end
$scope module NOT $end
$var wire 1 $ in $end
$var wire 1 f# out $end
$upscope $end
$scope module OR $end
$var wire 1 d# a $end
$var wire 1 c# b $end
$var wire 1 e# out $end
$upscope $end
$upscope $end
$scope module MUXB $end
$var wire 1 g# a $end
$var wire 1 h# b $end
$var wire 1 $ sel $end
$var wire 1 i# sb $end
$var wire 1 j# sa $end
$var wire 1 k# out $end
$var wire 1 l# nsel $end
$scope module AND1 $end
$var wire 1 g# a $end
$var wire 1 j# out $end
$var wire 1 l# b $end
$upscope $end
$scope module AND2 $end
$var wire 1 h# a $end
$var wire 1 $ b $end
$var wire 1 i# out $end
$upscope $end
$scope module NOT $end
$var wire 1 $ in $end
$var wire 1 l# out $end
$upscope $end
$scope module OR $end
$var wire 1 j# a $end
$var wire 1 i# b $end
$var wire 1 k# out $end
$upscope $end
$upscope $end
$scope module MUXC $end
$var wire 1 m# a $end
$var wire 1 n# b $end
$var wire 1 $ sel $end
$var wire 1 o# sb $end
$var wire 1 p# sa $end
$var wire 1 q# out $end
$var wire 1 r# nsel $end
$scope module AND1 $end
$var wire 1 m# a $end
$var wire 1 p# out $end
$var wire 1 r# b $end
$upscope $end
$scope module AND2 $end
$var wire 1 n# a $end
$var wire 1 $ b $end
$var wire 1 o# out $end
$upscope $end
$scope module NOT $end
$var wire 1 $ in $end
$var wire 1 r# out $end
$upscope $end
$scope module OR $end
$var wire 1 p# a $end
$var wire 1 o# b $end
$var wire 1 q# out $end
$upscope $end
$upscope $end
$scope module MUXD $end
$var wire 1 s# a $end
$var wire 1 t# b $end
$var wire 1 $ sel $end
$var wire 1 u# sb $end
$var wire 1 v# sa $end
$var wire 1 w# out $end
$var wire 1 x# nsel $end
$scope module AND1 $end
$var wire 1 s# a $end
$var wire 1 v# out $end
$var wire 1 x# b $end
$upscope $end
$scope module AND2 $end
$var wire 1 t# a $end
$var wire 1 $ b $end
$var wire 1 u# out $end
$upscope $end
$scope module NOT $end
$var wire 1 $ in $end
$var wire 1 x# out $end
$upscope $end
$scope module OR $end
$var wire 1 v# a $end
$var wire 1 u# b $end
$var wire 1 w# out $end
$upscope $end
$upscope $end
$scope module MUXE $end
$var wire 1 y# a $end
$var wire 1 z# b $end
$var wire 1 $ sel $end
$var wire 1 {# sb $end
$var wire 1 |# sa $end
$var wire 1 }# out $end
$var wire 1 ~# nsel $end
$scope module AND1 $end
$var wire 1 y# a $end
$var wire 1 |# out $end
$var wire 1 ~# b $end
$upscope $end
$scope module AND2 $end
$var wire 1 z# a $end
$var wire 1 $ b $end
$var wire 1 {# out $end
$upscope $end
$scope module NOT $end
$var wire 1 $ in $end
$var wire 1 ~# out $end
$upscope $end
$scope module OR $end
$var wire 1 |# a $end
$var wire 1 {# b $end
$var wire 1 }# out $end
$upscope $end
$upscope $end
$scope module MUXF $end
$var wire 1 !$ a $end
$var wire 1 "$ b $end
$var wire 1 $ sel $end
$var wire 1 #$ sb $end
$var wire 1 $$ sa $end
$var wire 1 %$ out $end
$var wire 1 &$ nsel $end
$scope module AND1 $end
$var wire 1 !$ a $end
$var wire 1 $$ out $end
$var wire 1 &$ b $end
$upscope $end
$scope module AND2 $end
$var wire 1 "$ a $end
$var wire 1 $ b $end
$var wire 1 #$ out $end
$upscope $end
$scope module NOT $end
$var wire 1 $ in $end
$var wire 1 &$ out $end
$upscope $end
$scope module OR $end
$var wire 1 $$ a $end
$var wire 1 #$ b $end
$var wire 1 %$ out $end
$upscope $end
$upscope $end
$upscope $end
$scope module OR $end
$var wire 1 $ a $end
$var wire 1 # b $end
$var wire 1 ( out $end
$upscope $end
$upscope $end
$upscope $end
$enddefinitions $end
#0
$dumpvars
1&$
0%$
0$$
0#$
0"$
0!$
1~#
0}#
0|#
0{#
0z#
0y#
1x#
0w#
0v#
0u#
0t#
0s#
1r#
0q#
0p#
0o#
0n#
0m#
1l#
0k#
0j#
0i#
0h#
0g#
1f#
0e#
0d#
0c#
0b#
0a#
1`#
0_#
0^#
0]#
0\#
0[#
1Z#
0Y#
0X#
0W#
0V#
0U#
1T#
0S#
0R#
0Q#
0P#
0O#
1N#
0M#
0L#
0K#
0J#
0I#
1H#
0G#
0F#
0E#
0D#
0C#
1B#
0A#
0@#
0?#
0>#
0=#
1<#
0;#
0:#
09#
08#
07#
16#
05#
04#
03#
02#
01#
10#
0/#
0.#
0-#
0,#
0+#
1*#
1)#
1(#
0'#
0&#
1%#
b1 $#
b0 ##
b1 "#
1!#
0~"
0}"
0|"
1{"
0z"
0y"
0x"
1w"
0v"
0u"
0t"
1s"
0r"
0q"
0p"
1o"
0n"
0m"
0l"
1k"
0j"
0i"
0h"
1g"
0f"
0e"
0d"
1c"
0b"
0a"
0`"
1_"
0^"
0]"
0\"
1["
0Z"
0Y"
0X"
1W"
0V"
0U"
0T"
1S"
0R"
0Q"
0P"
1O"
0N"
0M"
0L"
1K"
0J"
0I"
0H"
1G"
0F"
0E"
0D"
1C"
1B"
1A"
1@"
0?"
0>"
0="
0<"
0;"
0:"
09"
08"
07"
06"
05"
04"
03"
02"
01"
00"
0/"
b1 ."
b0 -"
1,"
0+"
0*"
0)"
0("
0'"
1&"
0%"
0$"
0#"
0""
0!"
1~
0}
0|
0{
0z
0y
1x
0w
0v
0u
0t
0s
1r
0q
0p
0o
0n
0m
1l
0k
0j
0i
0h
0g
1f
0e
0d
0c
0b
0a
1`
0_
0^
0]
0\
0[
1Z
0Y
0X
0W
0V
0U
1T
0S
0R
0Q
0P
0O
1N
0M
0L
0K
0J
0I
1H
0G
0F
0E
0D
0C
1B
0A
0@
0?
0>
0=
1<
0;
0:
09
08
07
16
05
04
03
02
01
10
0/
0.
0-
0,
1+
b1 *
b0 )
0(
b1 '
b1 &
b0 %
0$
0#
0"
b0 !
$end
#1
1"
#2
0"
#3
1"
#4
1-
0,"
0&"
0~
0x
0r
0l
0f
0`
0Z
0T
0N
0H
0B
0<
06
00
1.
1(
0"
1#
#5
1"
#6
13
14
0-
11
0.
1/#
0+
1.#
b10 '
b10 *
b10 $#
0)#
1+#
0(#
1E"
0%#
1F"
b10 &
b10 ."
b10 "#
0A"
1>"
0C"
1?"
b1 !
b1 %
b1 )
b1 -"
1,
0"
#7
1"
#8
0]
1-
0^
13
1.
0[
14
1+
05#
11
1)#
04#
b11 '
b11 *
b11 $#
1/#
1(#
01#
1.#
1%#
0a"
1+#
1A"
0b"
b11 &
b11 ."
b11 "#
1E"
0>"
1C"
0="
1G"
0?"
1D"
0,
b10 !
b10 %
b10 )
b10 -"
12
0"
#9
1"
#10
11#
1a"
0+#
1b"
0E"
0%#
1="
0G"
b100 &
b100 ."
b100 "#
0A"
1>"
0C"
1?"
b11 !
b11 %
b11 )
b11 -"
1,
0-
03
0.
04
0+
01
0)#
b0 '
b0 *
b0 $#
0/#
0(#
0.#
0*#
00#
06#
0<#
0B#
0H#
0N#
0T#
0Z#
0`#
0f#
0l#
0r#
0x#
0~#
0&$
0"
1$
#11
1"
#12
1-
03
1.
04
1+
01
1)#
0/#
1(#
01#
0.#
1%#
0a"
0+#
0F"
1A"
0b"
b1 &
b1 ."
b1 "#
0E"
0>"
1C"
0="
1G"
0?"
0D"
0,
b0 !
b0 %
b0 )
b0 -"
02
0]
0^
0[
b1 '
b1 *
b1 $#
05#
04#
1*#
10#
16#
1<#
1B#
1H#
1N#
1T#
1Z#
1`#
1f#
1l#
1r#
1x#
1~#
1&$
0"
0$
#13
1"
#14
13
14
0-
11
0.
1/#
0+
1.#
b10 '
b10 *
b10 $#
0)#
1+#
0(#
1E"
0%#
1F"
b10 &
b10 ."
b10 "#
0A"
1>"
0C"
1?"
b1 !
b1 %
b1 )
b1 -"
1,
0"
#15
1"
#16
0]
1-
0^
13
1.
0[
14
1+
05#
11
1)#
04#
b11 '
b11 *
b11 $#
1/#
1(#
01#
1.#
1%#
0a"
1+#
1A"
0b"
b11 &
b11 ."
b11 "#
1E"
0>"
1C"
0="
1G"
0?"
1D"
0,
b10 !
b10 %
b10 )
b10 -"
12
0"
#17
1"
#18
1]
1^
03
1[
04
0-
15#
01
0.
14#
0/#
0+
11#
0.#
b100 '
b100 *
b100 $#
0)#
1a"
0+#
0(#
1b"
0E"
0%#
1="
0G"
b100 &
b100 ."
b100 "#
0A"
1>"
0C"
1?"
b11 !
b11 %
b11 )
b11 -"
1,
0"
#19
1"
#20
0c
1-
03
0d
1]
1.
04
0a
1^
1+
01
0;#
1[
1)#
0/#
0:#
b101 '
b101 *
b101 $#
15#
1(#
0.#
07#
14#
1%#
0+#
0e"
11#
0F"
1A"
0E"
0f"
b101 &
b101 ."
b101 "#
1a"
0>"
1C"
0="
1G"
06"
1c"
0?"
0D"
1`"
0,
02
b100 !
b100 %
b100 )
b100 -"
1\
0"
#21
1"
#22
11
1/#
0+
1.#
b110 '
b110 *
b110 $#
0)#
1+#
0(#
1E"
0%#
1F"
b110 &
b110 ."
b110 "#
0A"
1>"
0C"
1/
1?"
b101 !
b101 %
b101 )
b101 -"
1,
1_
1]
1-
1,"
1&"
1~
1x
1r
1l
1f
1`
0^
1Z
1T
1N
1H
1B
1<
16
10
0.
0(
0"
0#
#23
1"
#24
0]
01
0[
0-
0/#
b0 '
b0 *
b0 $#
05#
0_
03
0/
0.#
04#
0,"
0&"
0~
0x
0r
0l
0f
0`
0^
0Z
0T
0N
0H
0B
0<
06
04
00
0*#
00#
06#
0<#
0B#
0H#
0N#
0T#
0Z#
0`#
0f#
0l#
0r#
0x#
0~#
0&$
1(
0"
1$
#25
1"
#26
1+
1)#
0+#
1(#
01#
0E"
1%#
0a"
0F"
b1 &
b1 ."
b1 "#
1A"
0b"
0>"
1C"
0`"
0?"
0\
b0 !
b0 %
b0 )
b0 -"
0,
01
0[
0]
0-
0/#
b1 '
b1 *
b1 $#
05#
0_
0/
0.#
04#
1,"
1&"
1~
1x
1r
1l
1f
1`
1Z
1T
1N
1H
1B
1<
16
10
1*#
10#
16#
1<#
1B#
1H#
1N#
1T#
1Z#
1`#
1f#
1l#
1r#
1x#
1~#
1&$
0(
0"
0$
#27
1"
#28
0"
