$date
	Thu Jul 23 10:50:30 2020
$end
$version
	Icarus Verilog
$end
$timescale
	1ps
$end
$scope module SD_tb $end
$var wire 1 ! miso $end
$var wire 1 " sck $end
$var wire 16 # out [15:0] $end
$var wire 1 $ mosi $end
$var wire 1 % cen $end
$var reg 1 & clk $end
$var reg 16 ' in [15:0] $end
$var reg 1 ( load $end
$scope module SD $end
$var wire 1 & clk $end
$var wire 16 ) in [15:0] $end
$var wire 1 ( load $end
$var wire 1 ! miso $end
$var wire 1 * ready $end
$var wire 1 + sample $end
$var wire 1 , shift $end
$var wire 1 - start $end
$var wire 1 . stop $end
$var wire 1 " sck $end
$var wire 1 / run $end
$var wire 16 0 out [15:0] $end
$var wire 1 $ mosi $end
$var wire 1 1 inLSB $end
$var wire 8 2 data [7:0] $end
$var wire 1 % cen $end
$var wire 16 3 bits [15:0] $end
$scope module BITS $end
$var wire 1 & clk $end
$var wire 16 4 in [15:0] $end
$var wire 1 5 load $end
$var wire 1 - reset $end
$var wire 16 6 out [15:0] $end
$var wire 16 7 nextinc [15:0] $end
$var wire 16 8 nextLoad [15:0] $end
$var wire 16 9 next [15:0] $end
$var wire 1 : loadOrReset $end
$var wire 1 ; incOrLoadOrReset $end
$var wire 1 / inc $end
$scope module COUNTER $end
$var wire 1 & clk $end
$var wire 16 < out [15:0] $end
$var wire 1 ; load $end
$var wire 16 = in [15:0] $end
$scope module BIT0 $end
$var wire 1 & clk $end
$var wire 1 > in $end
$var wire 1 ? out $end
$var wire 1 ; load $end
$var wire 1 @ dffin $end
$scope module DFF $end
$var wire 1 & clk $end
$var wire 1 @ in $end
$var reg 1 ? out $end
$upscope $end
$scope module MUX $end
$var wire 1 ? a $end
$var wire 1 > b $end
$var wire 1 ; sel $end
$var wire 1 A sb $end
$var wire 1 B sa $end
$var wire 1 @ out $end
$var wire 1 C nsel $end
$scope module AND1 $end
$var wire 1 ? a $end
$var wire 1 B out $end
$var wire 1 C b $end
$upscope $end
$scope module AND2 $end
$var wire 1 > a $end
$var wire 1 A out $end
$var wire 1 ; b $end
$upscope $end
$scope module NOT $end
$var wire 1 C out $end
$var wire 1 ; in $end
$upscope $end
$scope module OR $end
$var wire 1 B a $end
$var wire 1 A b $end
$var wire 1 @ out $end
$upscope $end
$upscope $end
$upscope $end
$scope module BIT1 $end
$var wire 1 & clk $end
$var wire 1 D in $end
$var wire 1 E out $end
$var wire 1 ; load $end
$var wire 1 F dffin $end
$scope module DFF $end
$var wire 1 & clk $end
$var wire 1 F in $end
$var reg 1 E out $end
$upscope $end
$scope module MUX $end
$var wire 1 E a $end
$var wire 1 D b $end
$var wire 1 ; sel $end
$var wire 1 G sb $end
$var wire 1 H sa $end
$var wire 1 F out $end
$var wire 1 I nsel $end
$scope module AND1 $end
$var wire 1 E a $end
$var wire 1 H out $end
$var wire 1 I b $end
$upscope $end
$scope module AND2 $end
$var wire 1 D a $end
$var wire 1 G out $end
$var wire 1 ; b $end
$upscope $end
$scope module NOT $end
$var wire 1 I out $end
$var wire 1 ; in $end
$upscope $end
$scope module OR $end
$var wire 1 H a $end
$var wire 1 G b $end
$var wire 1 F out $end
$upscope $end
$upscope $end
$upscope $end
$scope module BIT10 $end
$var wire 1 & clk $end
$var wire 1 J in $end
$var wire 1 K out $end
$var wire 1 ; load $end
$var wire 1 L dffin $end
$scope module DFF $end
$var wire 1 & clk $end
$var wire 1 L in $end
$var reg 1 K out $end
$upscope $end
$scope module MUX $end
$var wire 1 K a $end
$var wire 1 J b $end
$var wire 1 ; sel $end
$var wire 1 M sb $end
$var wire 1 N sa $end
$var wire 1 L out $end
$var wire 1 O nsel $end
$scope module AND1 $end
$var wire 1 K a $end
$var wire 1 N out $end
$var wire 1 O b $end
$upscope $end
$scope module AND2 $end
$var wire 1 J a $end
$var wire 1 M out $end
$var wire 1 ; b $end
$upscope $end
$scope module NOT $end
$var wire 1 O out $end
$var wire 1 ; in $end
$upscope $end
$scope module OR $end
$var wire 1 N a $end
$var wire 1 M b $end
$var wire 1 L out $end
$upscope $end
$upscope $end
$upscope $end
$scope module BIT11 $end
$var wire 1 & clk $end
$var wire 1 P in $end
$var wire 1 Q out $end
$var wire 1 ; load $end
$var wire 1 R dffin $end
$scope module DFF $end
$var wire 1 & clk $end
$var wire 1 R in $end
$var reg 1 Q out $end
$upscope $end
$scope module MUX $end
$var wire 1 Q a $end
$var wire 1 P b $end
$var wire 1 ; sel $end
$var wire 1 S sb $end
$var wire 1 T sa $end
$var wire 1 R out $end
$var wire 1 U nsel $end
$scope module AND1 $end
$var wire 1 Q a $end
$var wire 1 T out $end
$var wire 1 U b $end
$upscope $end
$scope module AND2 $end
$var wire 1 P a $end
$var wire 1 S out $end
$var wire 1 ; b $end
$upscope $end
$scope module NOT $end
$var wire 1 U out $end
$var wire 1 ; in $end
$upscope $end
$scope module OR $end
$var wire 1 T a $end
$var wire 1 S b $end
$var wire 1 R out $end
$upscope $end
$upscope $end
$upscope $end
$scope module BIT12 $end
$var wire 1 & clk $end
$var wire 1 V in $end
$var wire 1 W out $end
$var wire 1 ; load $end
$var wire 1 X dffin $end
$scope module DFF $end
$var wire 1 & clk $end
$var wire 1 X in $end
$var reg 1 W out $end
$upscope $end
$scope module MUX $end
$var wire 1 W a $end
$var wire 1 V b $end
$var wire 1 ; sel $end
$var wire 1 Y sb $end
$var wire 1 Z sa $end
$var wire 1 X out $end
$var wire 1 [ nsel $end
$scope module AND1 $end
$var wire 1 W a $end
$var wire 1 Z out $end
$var wire 1 [ b $end
$upscope $end
$scope module AND2 $end
$var wire 1 V a $end
$var wire 1 Y out $end
$var wire 1 ; b $end
$upscope $end
$scope module NOT $end
$var wire 1 [ out $end
$var wire 1 ; in $end
$upscope $end
$scope module OR $end
$var wire 1 Z a $end
$var wire 1 Y b $end
$var wire 1 X out $end
$upscope $end
$upscope $end
$upscope $end
$scope module BIT13 $end
$var wire 1 & clk $end
$var wire 1 \ in $end
$var wire 1 ] out $end
$var wire 1 ; load $end
$var wire 1 ^ dffin $end
$scope module DFF $end
$var wire 1 & clk $end
$var wire 1 ^ in $end
$var reg 1 ] out $end
$upscope $end
$scope module MUX $end
$var wire 1 ] a $end
$var wire 1 \ b $end
$var wire 1 ; sel $end
$var wire 1 _ sb $end
$var wire 1 ` sa $end
$var wire 1 ^ out $end
$var wire 1 a nsel $end
$scope module AND1 $end
$var wire 1 ] a $end
$var wire 1 ` out $end
$var wire 1 a b $end
$upscope $end
$scope module AND2 $end
$var wire 1 \ a $end
$var wire 1 _ out $end
$var wire 1 ; b $end
$upscope $end
$scope module NOT $end
$var wire 1 a out $end
$var wire 1 ; in $end
$upscope $end
$scope module OR $end
$var wire 1 ` a $end
$var wire 1 _ b $end
$var wire 1 ^ out $end
$upscope $end
$upscope $end
$upscope $end
$scope module BIT14 $end
$var wire 1 & clk $end
$var wire 1 b in $end
$var wire 1 c out $end
$var wire 1 ; load $end
$var wire 1 d dffin $end
$scope module DFF $end
$var wire 1 & clk $end
$var wire 1 d in $end
$var reg 1 c out $end
$upscope $end
$scope module MUX $end
$var wire 1 c a $end
$var wire 1 b b $end
$var wire 1 ; sel $end
$var wire 1 e sb $end
$var wire 1 f sa $end
$var wire 1 d out $end
$var wire 1 g nsel $end
$scope module AND1 $end
$var wire 1 c a $end
$var wire 1 f out $end
$var wire 1 g b $end
$upscope $end
$scope module AND2 $end
$var wire 1 b a $end
$var wire 1 e out $end
$var wire 1 ; b $end
$upscope $end
$scope module NOT $end
$var wire 1 g out $end
$var wire 1 ; in $end
$upscope $end
$scope module OR $end
$var wire 1 f a $end
$var wire 1 e b $end
$var wire 1 d out $end
$upscope $end
$upscope $end
$upscope $end
$scope module BIT15 $end
$var wire 1 & clk $end
$var wire 1 h in $end
$var wire 1 i out $end
$var wire 1 ; load $end
$var wire 1 j dffin $end
$scope module DFF $end
$var wire 1 & clk $end
$var wire 1 j in $end
$var reg 1 i out $end
$upscope $end
$scope module MUX $end
$var wire 1 i a $end
$var wire 1 h b $end
$var wire 1 ; sel $end
$var wire 1 k sb $end
$var wire 1 l sa $end
$var wire 1 j out $end
$var wire 1 m nsel $end
$scope module AND1 $end
$var wire 1 i a $end
$var wire 1 l out $end
$var wire 1 m b $end
$upscope $end
$scope module AND2 $end
$var wire 1 h a $end
$var wire 1 k out $end
$var wire 1 ; b $end
$upscope $end
$scope module NOT $end
$var wire 1 m out $end
$var wire 1 ; in $end
$upscope $end
$scope module OR $end
$var wire 1 l a $end
$var wire 1 k b $end
$var wire 1 j out $end
$upscope $end
$upscope $end
$upscope $end
$scope module BIT2 $end
$var wire 1 & clk $end
$var wire 1 n in $end
$var wire 1 o out $end
$var wire 1 ; load $end
$var wire 1 p dffin $end
$scope module DFF $end
$var wire 1 & clk $end
$var wire 1 p in $end
$var reg 1 o out $end
$upscope $end
$scope module MUX $end
$var wire 1 o a $end
$var wire 1 n b $end
$var wire 1 ; sel $end
$var wire 1 q sb $end
$var wire 1 r sa $end
$var wire 1 p out $end
$var wire 1 s nsel $end
$scope module AND1 $end
$var wire 1 o a $end
$var wire 1 r out $end
$var wire 1 s b $end
$upscope $end
$scope module AND2 $end
$var wire 1 n a $end
$var wire 1 q out $end
$var wire 1 ; b $end
$upscope $end
$scope module NOT $end
$var wire 1 s out $end
$var wire 1 ; in $end
$upscope $end
$scope module OR $end
$var wire 1 r a $end
$var wire 1 q b $end
$var wire 1 p out $end
$upscope $end
$upscope $end
$upscope $end
$scope module BIT3 $end
$var wire 1 & clk $end
$var wire 1 t in $end
$var wire 1 u out $end
$var wire 1 ; load $end
$var wire 1 v dffin $end
$scope module DFF $end
$var wire 1 & clk $end
$var wire 1 v in $end
$var reg 1 u out $end
$upscope $end
$scope module MUX $end
$var wire 1 u a $end
$var wire 1 t b $end
$var wire 1 ; sel $end
$var wire 1 w sb $end
$var wire 1 x sa $end
$var wire 1 v out $end
$var wire 1 y nsel $end
$scope module AND1 $end
$var wire 1 u a $end
$var wire 1 x out $end
$var wire 1 y b $end
$upscope $end
$scope module AND2 $end
$var wire 1 t a $end
$var wire 1 w out $end
$var wire 1 ; b $end
$upscope $end
$scope module NOT $end
$var wire 1 y out $end
$var wire 1 ; in $end
$upscope $end
$scope module OR $end
$var wire 1 x a $end
$var wire 1 w b $end
$var wire 1 v out $end
$upscope $end
$upscope $end
$upscope $end
$scope module BIT4 $end
$var wire 1 & clk $end
$var wire 1 z in $end
$var wire 1 { out $end
$var wire 1 ; load $end
$var wire 1 | dffin $end
$scope module DFF $end
$var wire 1 & clk $end
$var wire 1 | in $end
$var reg 1 { out $end
$upscope $end
$scope module MUX $end
$var wire 1 { a $end
$var wire 1 z b $end
$var wire 1 ; sel $end
$var wire 1 } sb $end
$var wire 1 ~ sa $end
$var wire 1 | out $end
$var wire 1 !" nsel $end
$scope module AND1 $end
$var wire 1 { a $end
$var wire 1 ~ out $end
$var wire 1 !" b $end
$upscope $end
$scope module AND2 $end
$var wire 1 z a $end
$var wire 1 } out $end
$var wire 1 ; b $end
$upscope $end
$scope module NOT $end
$var wire 1 !" out $end
$var wire 1 ; in $end
$upscope $end
$scope module OR $end
$var wire 1 ~ a $end
$var wire 1 } b $end
$var wire 1 | out $end
$upscope $end
$upscope $end
$upscope $end
$scope module BIT5 $end
$var wire 1 & clk $end
$var wire 1 "" in $end
$var wire 1 #" out $end
$var wire 1 ; load $end
$var wire 1 $" dffin $end
$scope module DFF $end
$var wire 1 & clk $end
$var wire 1 $" in $end
$var reg 1 #" out $end
$upscope $end
$scope module MUX $end
$var wire 1 #" a $end
$var wire 1 "" b $end
$var wire 1 ; sel $end
$var wire 1 %" sb $end
$var wire 1 &" sa $end
$var wire 1 $" out $end
$var wire 1 '" nsel $end
$scope module AND1 $end
$var wire 1 #" a $end
$var wire 1 &" out $end
$var wire 1 '" b $end
$upscope $end
$scope module AND2 $end
$var wire 1 "" a $end
$var wire 1 %" out $end
$var wire 1 ; b $end
$upscope $end
$scope module NOT $end
$var wire 1 '" out $end
$var wire 1 ; in $end
$upscope $end
$scope module OR $end
$var wire 1 &" a $end
$var wire 1 %" b $end
$var wire 1 $" out $end
$upscope $end
$upscope $end
$upscope $end
$scope module BIT6 $end
$var wire 1 & clk $end
$var wire 1 (" in $end
$var wire 1 )" out $end
$var wire 1 ; load $end
$var wire 1 *" dffin $end
$scope module DFF $end
$var wire 1 & clk $end
$var wire 1 *" in $end
$var reg 1 )" out $end
$upscope $end
$scope module MUX $end
$var wire 1 )" a $end
$var wire 1 (" b $end
$var wire 1 ; sel $end
$var wire 1 +" sb $end
$var wire 1 ," sa $end
$var wire 1 *" out $end
$var wire 1 -" nsel $end
$scope module AND1 $end
$var wire 1 )" a $end
$var wire 1 ," out $end
$var wire 1 -" b $end
$upscope $end
$scope module AND2 $end
$var wire 1 (" a $end
$var wire 1 +" out $end
$var wire 1 ; b $end
$upscope $end
$scope module NOT $end
$var wire 1 -" out $end
$var wire 1 ; in $end
$upscope $end
$scope module OR $end
$var wire 1 ," a $end
$var wire 1 +" b $end
$var wire 1 *" out $end
$upscope $end
$upscope $end
$upscope $end
$scope module BIT7 $end
$var wire 1 & clk $end
$var wire 1 ." in $end
$var wire 1 /" out $end
$var wire 1 ; load $end
$var wire 1 0" dffin $end
$scope module DFF $end
$var wire 1 & clk $end
$var wire 1 0" in $end
$var reg 1 /" out $end
$upscope $end
$scope module MUX $end
$var wire 1 /" a $end
$var wire 1 ." b $end
$var wire 1 ; sel $end
$var wire 1 1" sb $end
$var wire 1 2" sa $end
$var wire 1 0" out $end
$var wire 1 3" nsel $end
$scope module AND1 $end
$var wire 1 /" a $end
$var wire 1 2" out $end
$var wire 1 3" b $end
$upscope $end
$scope module AND2 $end
$var wire 1 ." a $end
$var wire 1 1" out $end
$var wire 1 ; b $end
$upscope $end
$scope module NOT $end
$var wire 1 3" out $end
$var wire 1 ; in $end
$upscope $end
$scope module OR $end
$var wire 1 2" a $end
$var wire 1 1" b $end
$var wire 1 0" out $end
$upscope $end
$upscope $end
$upscope $end
$scope module BIT8 $end
$var wire 1 & clk $end
$var wire 1 4" in $end
$var wire 1 5" out $end
$var wire 1 ; load $end
$var wire 1 6" dffin $end
$scope module DFF $end
$var wire 1 & clk $end
$var wire 1 6" in $end
$var reg 1 5" out $end
$upscope $end
$scope module MUX $end
$var wire 1 5" a $end
$var wire 1 4" b $end
$var wire 1 ; sel $end
$var wire 1 7" sb $end
$var wire 1 8" sa $end
$var wire 1 6" out $end
$var wire 1 9" nsel $end
$scope module AND1 $end
$var wire 1 5" a $end
$var wire 1 8" out $end
$var wire 1 9" b $end
$upscope $end
$scope module AND2 $end
$var wire 1 4" a $end
$var wire 1 7" out $end
$var wire 1 ; b $end
$upscope $end
$scope module NOT $end
$var wire 1 9" out $end
$var wire 1 ; in $end
$upscope $end
$scope module OR $end
$var wire 1 8" a $end
$var wire 1 7" b $end
$var wire 1 6" out $end
$upscope $end
$upscope $end
$upscope $end
$scope module BIT9 $end
$var wire 1 & clk $end
$var wire 1 :" in $end
$var wire 1 ;" out $end
$var wire 1 ; load $end
$var wire 1 <" dffin $end
$scope module DFF $end
$var wire 1 & clk $end
$var wire 1 <" in $end
$var reg 1 ;" out $end
$upscope $end
$scope module MUX $end
$var wire 1 ;" a $end
$var wire 1 :" b $end
$var wire 1 ; sel $end
$var wire 1 =" sb $end
$var wire 1 >" sa $end
$var wire 1 <" out $end
$var wire 1 ?" nsel $end
$scope module AND1 $end
$var wire 1 ;" a $end
$var wire 1 >" out $end
$var wire 1 ?" b $end
$upscope $end
$scope module AND2 $end
$var wire 1 :" a $end
$var wire 1 =" out $end
$var wire 1 ; b $end
$upscope $end
$scope module NOT $end
$var wire 1 ?" out $end
$var wire 1 ; in $end
$upscope $end
$scope module OR $end
$var wire 1 >" a $end
$var wire 1 =" b $end
$var wire 1 <" out $end
$upscope $end
$upscope $end
$upscope $end
$upscope $end
$scope module INC $end
$var wire 16 @" in [15:0] $end
$var wire 16 A" out [15:0] $end
$var wire 1 B" c9 $end
$var wire 1 C" c8 $end
$var wire 1 D" c7 $end
$var wire 1 E" c6 $end
$var wire 1 F" c5 $end
$var wire 1 G" c4 $end
$var wire 1 H" c3 $end
$var wire 1 I" c2 $end
$var wire 1 J" c15 $end
$var wire 1 K" c14 $end
$var wire 1 L" c13 $end
$var wire 1 M" c12 $end
$var wire 1 N" c11 $end
$var wire 1 O" c10 $end
$var wire 1 P" c1 $end
$var wire 1 Q" c0 $end
$scope module HA0 $end
$var wire 1 R" a $end
$var wire 1 S" b $end
$var wire 1 T" sum $end
$var wire 1 Q" carry $end
$scope module AND $end
$var wire 1 R" a $end
$var wire 1 S" b $end
$var wire 1 Q" out $end
$upscope $end
$scope module XOR $end
$var wire 1 R" a $end
$var wire 1 S" b $end
$var wire 1 T" out $end
$var wire 1 U" nand3 $end
$var wire 1 V" nand2 $end
$var wire 1 W" nand1 $end
$scope module NAND $end
$var wire 1 T" out $end
$var wire 1 U" b $end
$var wire 1 V" a $end
$upscope $end
$scope module NAND1 $end
$var wire 1 R" a $end
$var wire 1 S" b $end
$var wire 1 W" out $end
$upscope $end
$scope module NAND2 $end
$var wire 1 R" a $end
$var wire 1 W" b $end
$var wire 1 V" out $end
$upscope $end
$scope module NAND3 $end
$var wire 1 W" a $end
$var wire 1 S" b $end
$var wire 1 U" out $end
$upscope $end
$upscope $end
$upscope $end
$scope module HA1 $end
$var wire 1 X" a $end
$var wire 1 Q" b $end
$var wire 1 Y" sum $end
$var wire 1 P" carry $end
$scope module AND $end
$var wire 1 X" a $end
$var wire 1 Q" b $end
$var wire 1 P" out $end
$upscope $end
$scope module XOR $end
$var wire 1 X" a $end
$var wire 1 Q" b $end
$var wire 1 Y" out $end
$var wire 1 Z" nand3 $end
$var wire 1 [" nand2 $end
$var wire 1 \" nand1 $end
$scope module NAND $end
$var wire 1 Y" out $end
$var wire 1 Z" b $end
$var wire 1 [" a $end
$upscope $end
$scope module NAND1 $end
$var wire 1 X" a $end
$var wire 1 Q" b $end
$var wire 1 \" out $end
$upscope $end
$scope module NAND2 $end
$var wire 1 X" a $end
$var wire 1 \" b $end
$var wire 1 [" out $end
$upscope $end
$scope module NAND3 $end
$var wire 1 \" a $end
$var wire 1 Q" b $end
$var wire 1 Z" out $end
$upscope $end
$upscope $end
$upscope $end
$scope module HA10 $end
$var wire 1 ]" a $end
$var wire 1 ^" sum $end
$var wire 1 O" carry $end
$var wire 1 B" b $end
$scope module AND $end
$var wire 1 ]" a $end
$var wire 1 O" out $end
$var wire 1 B" b $end
$upscope $end
$scope module XOR $end
$var wire 1 ]" a $end
$var wire 1 ^" out $end
$var wire 1 _" nand3 $end
$var wire 1 `" nand2 $end
$var wire 1 a" nand1 $end
$var wire 1 B" b $end
$scope module NAND $end
$var wire 1 ^" out $end
$var wire 1 _" b $end
$var wire 1 `" a $end
$upscope $end
$scope module NAND1 $end
$var wire 1 ]" a $end
$var wire 1 a" out $end
$var wire 1 B" b $end
$upscope $end
$scope module NAND2 $end
$var wire 1 ]" a $end
$var wire 1 a" b $end
$var wire 1 `" out $end
$upscope $end
$scope module NAND3 $end
$var wire 1 a" a $end
$var wire 1 _" out $end
$var wire 1 B" b $end
$upscope $end
$upscope $end
$upscope $end
$scope module HA11 $end
$var wire 1 b" a $end
$var wire 1 O" b $end
$var wire 1 c" sum $end
$var wire 1 N" carry $end
$scope module AND $end
$var wire 1 b" a $end
$var wire 1 O" b $end
$var wire 1 N" out $end
$upscope $end
$scope module XOR $end
$var wire 1 b" a $end
$var wire 1 O" b $end
$var wire 1 c" out $end
$var wire 1 d" nand3 $end
$var wire 1 e" nand2 $end
$var wire 1 f" nand1 $end
$scope module NAND $end
$var wire 1 c" out $end
$var wire 1 d" b $end
$var wire 1 e" a $end
$upscope $end
$scope module NAND1 $end
$var wire 1 b" a $end
$var wire 1 O" b $end
$var wire 1 f" out $end
$upscope $end
$scope module NAND2 $end
$var wire 1 b" a $end
$var wire 1 f" b $end
$var wire 1 e" out $end
$upscope $end
$scope module NAND3 $end
$var wire 1 f" a $end
$var wire 1 O" b $end
$var wire 1 d" out $end
$upscope $end
$upscope $end
$upscope $end
$scope module HA12 $end
$var wire 1 g" a $end
$var wire 1 N" b $end
$var wire 1 h" sum $end
$var wire 1 M" carry $end
$scope module AND $end
$var wire 1 g" a $end
$var wire 1 N" b $end
$var wire 1 M" out $end
$upscope $end
$scope module XOR $end
$var wire 1 g" a $end
$var wire 1 N" b $end
$var wire 1 h" out $end
$var wire 1 i" nand3 $end
$var wire 1 j" nand2 $end
$var wire 1 k" nand1 $end
$scope module NAND $end
$var wire 1 h" out $end
$var wire 1 i" b $end
$var wire 1 j" a $end
$upscope $end
$scope module NAND1 $end
$var wire 1 g" a $end
$var wire 1 N" b $end
$var wire 1 k" out $end
$upscope $end
$scope module NAND2 $end
$var wire 1 g" a $end
$var wire 1 k" b $end
$var wire 1 j" out $end
$upscope $end
$scope module NAND3 $end
$var wire 1 k" a $end
$var wire 1 N" b $end
$var wire 1 i" out $end
$upscope $end
$upscope $end
$upscope $end
$scope module HA13 $end
$var wire 1 l" a $end
$var wire 1 M" b $end
$var wire 1 m" sum $end
$var wire 1 L" carry $end
$scope module AND $end
$var wire 1 l" a $end
$var wire 1 M" b $end
$var wire 1 L" out $end
$upscope $end
$scope module XOR $end
$var wire 1 l" a $end
$var wire 1 M" b $end
$var wire 1 m" out $end
$var wire 1 n" nand3 $end
$var wire 1 o" nand2 $end
$var wire 1 p" nand1 $end
$scope module NAND $end
$var wire 1 m" out $end
$var wire 1 n" b $end
$var wire 1 o" a $end
$upscope $end
$scope module NAND1 $end
$var wire 1 l" a $end
$var wire 1 M" b $end
$var wire 1 p" out $end
$upscope $end
$scope module NAND2 $end
$var wire 1 l" a $end
$var wire 1 p" b $end
$var wire 1 o" out $end
$upscope $end
$scope module NAND3 $end
$var wire 1 p" a $end
$var wire 1 M" b $end
$var wire 1 n" out $end
$upscope $end
$upscope $end
$upscope $end
$scope module HA14 $end
$var wire 1 q" a $end
$var wire 1 L" b $end
$var wire 1 r" sum $end
$var wire 1 K" carry $end
$scope module AND $end
$var wire 1 q" a $end
$var wire 1 L" b $end
$var wire 1 K" out $end
$upscope $end
$scope module XOR $end
$var wire 1 q" a $end
$var wire 1 L" b $end
$var wire 1 r" out $end
$var wire 1 s" nand3 $end
$var wire 1 t" nand2 $end
$var wire 1 u" nand1 $end
$scope module NAND $end
$var wire 1 r" out $end
$var wire 1 s" b $end
$var wire 1 t" a $end
$upscope $end
$scope module NAND1 $end
$var wire 1 q" a $end
$var wire 1 L" b $end
$var wire 1 u" out $end
$upscope $end
$scope module NAND2 $end
$var wire 1 q" a $end
$var wire 1 u" b $end
$var wire 1 t" out $end
$upscope $end
$scope module NAND3 $end
$var wire 1 u" a $end
$var wire 1 L" b $end
$var wire 1 s" out $end
$upscope $end
$upscope $end
$upscope $end
$scope module HA15 $end
$var wire 1 v" a $end
$var wire 1 K" b $end
$var wire 1 w" sum $end
$var wire 1 J" carry $end
$scope module AND $end
$var wire 1 v" a $end
$var wire 1 K" b $end
$var wire 1 J" out $end
$upscope $end
$scope module XOR $end
$var wire 1 v" a $end
$var wire 1 K" b $end
$var wire 1 w" out $end
$var wire 1 x" nand3 $end
$var wire 1 y" nand2 $end
$var wire 1 z" nand1 $end
$scope module NAND $end
$var wire 1 w" out $end
$var wire 1 x" b $end
$var wire 1 y" a $end
$upscope $end
$scope module NAND1 $end
$var wire 1 v" a $end
$var wire 1 K" b $end
$var wire 1 z" out $end
$upscope $end
$scope module NAND2 $end
$var wire 1 v" a $end
$var wire 1 z" b $end
$var wire 1 y" out $end
$upscope $end
$scope module NAND3 $end
$var wire 1 z" a $end
$var wire 1 K" b $end
$var wire 1 x" out $end
$upscope $end
$upscope $end
$upscope $end
$scope module HA2 $end
$var wire 1 {" a $end
$var wire 1 P" b $end
$var wire 1 |" sum $end
$var wire 1 I" carry $end
$scope module AND $end
$var wire 1 {" a $end
$var wire 1 P" b $end
$var wire 1 I" out $end
$upscope $end
$scope module XOR $end
$var wire 1 {" a $end
$var wire 1 P" b $end
$var wire 1 |" out $end
$var wire 1 }" nand3 $end
$var wire 1 ~" nand2 $end
$var wire 1 !# nand1 $end
$scope module NAND $end
$var wire 1 |" out $end
$var wire 1 }" b $end
$var wire 1 ~" a $end
$upscope $end
$scope module NAND1 $end
$var wire 1 {" a $end
$var wire 1 P" b $end
$var wire 1 !# out $end
$upscope $end
$scope module NAND2 $end
$var wire 1 {" a $end
$var wire 1 !# b $end
$var wire 1 ~" out $end
$upscope $end
$scope module NAND3 $end
$var wire 1 !# a $end
$var wire 1 P" b $end
$var wire 1 }" out $end
$upscope $end
$upscope $end
$upscope $end
$scope module HA3 $end
$var wire 1 "# a $end
$var wire 1 I" b $end
$var wire 1 ## sum $end
$var wire 1 H" carry $end
$scope module AND $end
$var wire 1 "# a $end
$var wire 1 I" b $end
$var wire 1 H" out $end
$upscope $end
$scope module XOR $end
$var wire 1 "# a $end
$var wire 1 I" b $end
$var wire 1 ## out $end
$var wire 1 $# nand3 $end
$var wire 1 %# nand2 $end
$var wire 1 &# nand1 $end
$scope module NAND $end
$var wire 1 ## out $end
$var wire 1 $# b $end
$var wire 1 %# a $end
$upscope $end
$scope module NAND1 $end
$var wire 1 "# a $end
$var wire 1 I" b $end
$var wire 1 &# out $end
$upscope $end
$scope module NAND2 $end
$var wire 1 "# a $end
$var wire 1 &# b $end
$var wire 1 %# out $end
$upscope $end
$scope module NAND3 $end
$var wire 1 &# a $end
$var wire 1 I" b $end
$var wire 1 $# out $end
$upscope $end
$upscope $end
$upscope $end
$scope module HA4 $end
$var wire 1 '# a $end
$var wire 1 H" b $end
$var wire 1 (# sum $end
$var wire 1 G" carry $end
$scope module AND $end
$var wire 1 '# a $end
$var wire 1 H" b $end
$var wire 1 G" out $end
$upscope $end
$scope module XOR $end
$var wire 1 '# a $end
$var wire 1 H" b $end
$var wire 1 (# out $end
$var wire 1 )# nand3 $end
$var wire 1 *# nand2 $end
$var wire 1 +# nand1 $end
$scope module NAND $end
$var wire 1 (# out $end
$var wire 1 )# b $end
$var wire 1 *# a $end
$upscope $end
$scope module NAND1 $end
$var wire 1 '# a $end
$var wire 1 H" b $end
$var wire 1 +# out $end
$upscope $end
$scope module NAND2 $end
$var wire 1 '# a $end
$var wire 1 +# b $end
$var wire 1 *# out $end
$upscope $end
$scope module NAND3 $end
$var wire 1 +# a $end
$var wire 1 H" b $end
$var wire 1 )# out $end
$upscope $end
$upscope $end
$upscope $end
$scope module HA5 $end
$var wire 1 ,# a $end
$var wire 1 G" b $end
$var wire 1 -# sum $end
$var wire 1 F" carry $end
$scope module AND $end
$var wire 1 ,# a $end
$var wire 1 G" b $end
$var wire 1 F" out $end
$upscope $end
$scope module XOR $end
$var wire 1 ,# a $end
$var wire 1 G" b $end
$var wire 1 -# out $end
$var wire 1 .# nand3 $end
$var wire 1 /# nand2 $end
$var wire 1 0# nand1 $end
$scope module NAND $end
$var wire 1 -# out $end
$var wire 1 .# b $end
$var wire 1 /# a $end
$upscope $end
$scope module NAND1 $end
$var wire 1 ,# a $end
$var wire 1 G" b $end
$var wire 1 0# out $end
$upscope $end
$scope module NAND2 $end
$var wire 1 ,# a $end
$var wire 1 0# b $end
$var wire 1 /# out $end
$upscope $end
$scope module NAND3 $end
$var wire 1 0# a $end
$var wire 1 G" b $end
$var wire 1 .# out $end
$upscope $end
$upscope $end
$upscope $end
$scope module HA6 $end
$var wire 1 1# a $end
$var wire 1 F" b $end
$var wire 1 2# sum $end
$var wire 1 E" carry $end
$scope module AND $end
$var wire 1 1# a $end
$var wire 1 F" b $end
$var wire 1 E" out $end
$upscope $end
$scope module XOR $end
$var wire 1 1# a $end
$var wire 1 F" b $end
$var wire 1 2# out $end
$var wire 1 3# nand3 $end
$var wire 1 4# nand2 $end
$var wire 1 5# nand1 $end
$scope module NAND $end
$var wire 1 2# out $end
$var wire 1 3# b $end
$var wire 1 4# a $end
$upscope $end
$scope module NAND1 $end
$var wire 1 1# a $end
$var wire 1 F" b $end
$var wire 1 5# out $end
$upscope $end
$scope module NAND2 $end
$var wire 1 1# a $end
$var wire 1 5# b $end
$var wire 1 4# out $end
$upscope $end
$scope module NAND3 $end
$var wire 1 5# a $end
$var wire 1 F" b $end
$var wire 1 3# out $end
$upscope $end
$upscope $end
$upscope $end
$scope module HA7 $end
$var wire 1 6# a $end
$var wire 1 E" b $end
$var wire 1 7# sum $end
$var wire 1 D" carry $end
$scope module AND $end
$var wire 1 6# a $end
$var wire 1 E" b $end
$var wire 1 D" out $end
$upscope $end
$scope module XOR $end
$var wire 1 6# a $end
$var wire 1 E" b $end
$var wire 1 7# out $end
$var wire 1 8# nand3 $end
$var wire 1 9# nand2 $end
$var wire 1 :# nand1 $end
$scope module NAND $end
$var wire 1 7# out $end
$var wire 1 8# b $end
$var wire 1 9# a $end
$upscope $end
$scope module NAND1 $end
$var wire 1 6# a $end
$var wire 1 E" b $end
$var wire 1 :# out $end
$upscope $end
$scope module NAND2 $end
$var wire 1 6# a $end
$var wire 1 :# b $end
$var wire 1 9# out $end
$upscope $end
$scope module NAND3 $end
$var wire 1 :# a $end
$var wire 1 E" b $end
$var wire 1 8# out $end
$upscope $end
$upscope $end
$upscope $end
$scope module HA8 $end
$var wire 1 ;# a $end
$var wire 1 D" b $end
$var wire 1 <# sum $end
$var wire 1 C" carry $end
$scope module AND $end
$var wire 1 ;# a $end
$var wire 1 D" b $end
$var wire 1 C" out $end
$upscope $end
$scope module XOR $end
$var wire 1 ;# a $end
$var wire 1 D" b $end
$var wire 1 <# out $end
$var wire 1 =# nand3 $end
$var wire 1 ># nand2 $end
$var wire 1 ?# nand1 $end
$scope module NAND $end
$var wire 1 <# out $end
$var wire 1 =# b $end
$var wire 1 ># a $end
$upscope $end
$scope module NAND1 $end
$var wire 1 ;# a $end
$var wire 1 D" b $end
$var wire 1 ?# out $end
$upscope $end
$scope module NAND2 $end
$var wire 1 ;# a $end
$var wire 1 ?# b $end
$var wire 1 ># out $end
$upscope $end
$scope module NAND3 $end
$var wire 1 ?# a $end
$var wire 1 D" b $end
$var wire 1 =# out $end
$upscope $end
$upscope $end
$upscope $end
$scope module HA9 $end
$var wire 1 @# a $end
$var wire 1 C" b $end
$var wire 1 A# sum $end
$var wire 1 B" carry $end
$scope module AND $end
$var wire 1 @# a $end
$var wire 1 C" b $end
$var wire 1 B" out $end
$upscope $end
$scope module XOR $end
$var wire 1 @# a $end
$var wire 1 C" b $end
$var wire 1 A# out $end
$var wire 1 B# nand3 $end
$var wire 1 C# nand2 $end
$var wire 1 D# nand1 $end
$scope module NAND $end
$var wire 1 A# out $end
$var wire 1 B# b $end
$var wire 1 C# a $end
$upscope $end
$scope module NAND1 $end
$var wire 1 @# a $end
$var wire 1 C" b $end
$var wire 1 D# out $end
$upscope $end
$scope module NAND2 $end
$var wire 1 @# a $end
$var wire 1 D# b $end
$var wire 1 C# out $end
$upscope $end
$scope module NAND3 $end
$var wire 1 D# a $end
$var wire 1 C" b $end
$var wire 1 B# out $end
$upscope $end
$upscope $end
$upscope $end
$upscope $end
$scope module MUX $end
$var wire 16 E# a [15:0] $end
$var wire 16 F# b [15:0] $end
$var wire 1 5 sel $end
$var wire 16 G# out [15:0] $end
$scope module MUX0 $end
$var wire 1 H# a $end
$var wire 1 I# b $end
$var wire 1 5 sel $end
$var wire 1 J# sb $end
$var wire 1 K# sa $end
$var wire 1 L# out $end
$var wire 1 M# nsel $end
$scope module AND1 $end
$var wire 1 H# a $end
$var wire 1 K# out $end
$var wire 1 M# b $end
$upscope $end
$scope module AND2 $end
$var wire 1 I# a $end
$var wire 1 5 b $end
$var wire 1 J# out $end
$upscope $end
$scope module NOT $end
$var wire 1 5 in $end
$var wire 1 M# out $end
$upscope $end
$scope module OR $end
$var wire 1 K# a $end
$var wire 1 J# b $end
$var wire 1 L# out $end
$upscope $end
$upscope $end
$scope module MUX1 $end
$var wire 1 N# a $end
$var wire 1 O# b $end
$var wire 1 5 sel $end
$var wire 1 P# sb $end
$var wire 1 Q# sa $end
$var wire 1 R# out $end
$var wire 1 S# nsel $end
$scope module AND1 $end
$var wire 1 N# a $end
$var wire 1 Q# out $end
$var wire 1 S# b $end
$upscope $end
$scope module AND2 $end
$var wire 1 O# a $end
$var wire 1 5 b $end
$var wire 1 P# out $end
$upscope $end
$scope module NOT $end
$var wire 1 5 in $end
$var wire 1 S# out $end
$upscope $end
$scope module OR $end
$var wire 1 Q# a $end
$var wire 1 P# b $end
$var wire 1 R# out $end
$upscope $end
$upscope $end
$scope module MUX2 $end
$var wire 1 T# a $end
$var wire 1 U# b $end
$var wire 1 5 sel $end
$var wire 1 V# sb $end
$var wire 1 W# sa $end
$var wire 1 X# out $end
$var wire 1 Y# nsel $end
$scope module AND1 $end
$var wire 1 T# a $end
$var wire 1 W# out $end
$var wire 1 Y# b $end
$upscope $end
$scope module AND2 $end
$var wire 1 U# a $end
$var wire 1 5 b $end
$var wire 1 V# out $end
$upscope $end
$scope module NOT $end
$var wire 1 5 in $end
$var wire 1 Y# out $end
$upscope $end
$scope module OR $end
$var wire 1 W# a $end
$var wire 1 V# b $end
$var wire 1 X# out $end
$upscope $end
$upscope $end
$scope module MUX3 $end
$var wire 1 Z# a $end
$var wire 1 [# b $end
$var wire 1 5 sel $end
$var wire 1 \# sb $end
$var wire 1 ]# sa $end
$var wire 1 ^# out $end
$var wire 1 _# nsel $end
$scope module AND1 $end
$var wire 1 Z# a $end
$var wire 1 ]# out $end
$var wire 1 _# b $end
$upscope $end
$scope module AND2 $end
$var wire 1 [# a $end
$var wire 1 5 b $end
$var wire 1 \# out $end
$upscope $end
$scope module NOT $end
$var wire 1 5 in $end
$var wire 1 _# out $end
$upscope $end
$scope module OR $end
$var wire 1 ]# a $end
$var wire 1 \# b $end
$var wire 1 ^# out $end
$upscope $end
$upscope $end
$scope module MUX4 $end
$var wire 1 `# a $end
$var wire 1 a# b $end
$var wire 1 5 sel $end
$var wire 1 b# sb $end
$var wire 1 c# sa $end
$var wire 1 d# out $end
$var wire 1 e# nsel $end
$scope module AND1 $end
$var wire 1 `# a $end
$var wire 1 c# out $end
$var wire 1 e# b $end
$upscope $end
$scope module AND2 $end
$var wire 1 a# a $end
$var wire 1 5 b $end
$var wire 1 b# out $end
$upscope $end
$scope module NOT $end
$var wire 1 5 in $end
$var wire 1 e# out $end
$upscope $end
$scope module OR $end
$var wire 1 c# a $end
$var wire 1 b# b $end
$var wire 1 d# out $end
$upscope $end
$upscope $end
$scope module MUX5 $end
$var wire 1 f# a $end
$var wire 1 g# b $end
$var wire 1 5 sel $end
$var wire 1 h# sb $end
$var wire 1 i# sa $end
$var wire 1 j# out $end
$var wire 1 k# nsel $end
$scope module AND1 $end
$var wire 1 f# a $end
$var wire 1 i# out $end
$var wire 1 k# b $end
$upscope $end
$scope module AND2 $end
$var wire 1 g# a $end
$var wire 1 5 b $end
$var wire 1 h# out $end
$upscope $end
$scope module NOT $end
$var wire 1 5 in $end
$var wire 1 k# out $end
$upscope $end
$scope module OR $end
$var wire 1 i# a $end
$var wire 1 h# b $end
$var wire 1 j# out $end
$upscope $end
$upscope $end
$scope module MUX6 $end
$var wire 1 l# a $end
$var wire 1 m# b $end
$var wire 1 5 sel $end
$var wire 1 n# sb $end
$var wire 1 o# sa $end
$var wire 1 p# out $end
$var wire 1 q# nsel $end
$scope module AND1 $end
$var wire 1 l# a $end
$var wire 1 o# out $end
$var wire 1 q# b $end
$upscope $end
$scope module AND2 $end
$var wire 1 m# a $end
$var wire 1 5 b $end
$var wire 1 n# out $end
$upscope $end
$scope module NOT $end
$var wire 1 5 in $end
$var wire 1 q# out $end
$upscope $end
$scope module OR $end
$var wire 1 o# a $end
$var wire 1 n# b $end
$var wire 1 p# out $end
$upscope $end
$upscope $end
$scope module MUX7 $end
$var wire 1 r# a $end
$var wire 1 s# b $end
$var wire 1 5 sel $end
$var wire 1 t# sb $end
$var wire 1 u# sa $end
$var wire 1 v# out $end
$var wire 1 w# nsel $end
$scope module AND1 $end
$var wire 1 r# a $end
$var wire 1 u# out $end
$var wire 1 w# b $end
$upscope $end
$scope module AND2 $end
$var wire 1 s# a $end
$var wire 1 5 b $end
$var wire 1 t# out $end
$upscope $end
$scope module NOT $end
$var wire 1 5 in $end
$var wire 1 w# out $end
$upscope $end
$scope module OR $end
$var wire 1 u# a $end
$var wire 1 t# b $end
$var wire 1 v# out $end
$upscope $end
$upscope $end
$scope module MUX8 $end
$var wire 1 x# a $end
$var wire 1 y# b $end
$var wire 1 5 sel $end
$var wire 1 z# sb $end
$var wire 1 {# sa $end
$var wire 1 |# out $end
$var wire 1 }# nsel $end
$scope module AND1 $end
$var wire 1 x# a $end
$var wire 1 {# out $end
$var wire 1 }# b $end
$upscope $end
$scope module AND2 $end
$var wire 1 y# a $end
$var wire 1 5 b $end
$var wire 1 z# out $end
$upscope $end
$scope module NOT $end
$var wire 1 5 in $end
$var wire 1 }# out $end
$upscope $end
$scope module OR $end
$var wire 1 {# a $end
$var wire 1 z# b $end
$var wire 1 |# out $end
$upscope $end
$upscope $end
$scope module MUX9 $end
$var wire 1 ~# a $end
$var wire 1 !$ b $end
$var wire 1 5 sel $end
$var wire 1 "$ sb $end
$var wire 1 #$ sa $end
$var wire 1 $$ out $end
$var wire 1 %$ nsel $end
$scope module AND1 $end
$var wire 1 ~# a $end
$var wire 1 #$ out $end
$var wire 1 %$ b $end
$upscope $end
$scope module AND2 $end
$var wire 1 !$ a $end
$var wire 1 5 b $end
$var wire 1 "$ out $end
$upscope $end
$scope module NOT $end
$var wire 1 5 in $end
$var wire 1 %$ out $end
$upscope $end
$scope module OR $end
$var wire 1 #$ a $end
$var wire 1 "$ b $end
$var wire 1 $$ out $end
$upscope $end
$upscope $end
$scope module MUXA $end
$var wire 1 &$ a $end
$var wire 1 '$ b $end
$var wire 1 5 sel $end
$var wire 1 ($ sb $end
$var wire 1 )$ sa $end
$var wire 1 *$ out $end
$var wire 1 +$ nsel $end
$scope module AND1 $end
$var wire 1 &$ a $end
$var wire 1 )$ out $end
$var wire 1 +$ b $end
$upscope $end
$scope module AND2 $end
$var wire 1 '$ a $end
$var wire 1 5 b $end
$var wire 1 ($ out $end
$upscope $end
$scope module NOT $end
$var wire 1 5 in $end
$var wire 1 +$ out $end
$upscope $end
$scope module OR $end
$var wire 1 )$ a $end
$var wire 1 ($ b $end
$var wire 1 *$ out $end
$upscope $end
$upscope $end
$scope module MUXB $end
$var wire 1 ,$ a $end
$var wire 1 -$ b $end
$var wire 1 5 sel $end
$var wire 1 .$ sb $end
$var wire 1 /$ sa $end
$var wire 1 0$ out $end
$var wire 1 1$ nsel $end
$scope module AND1 $end
$var wire 1 ,$ a $end
$var wire 1 /$ out $end
$var wire 1 1$ b $end
$upscope $end
$scope module AND2 $end
$var wire 1 -$ a $end
$var wire 1 5 b $end
$var wire 1 .$ out $end
$upscope $end
$scope module NOT $end
$var wire 1 5 in $end
$var wire 1 1$ out $end
$upscope $end
$scope module OR $end
$var wire 1 /$ a $end
$var wire 1 .$ b $end
$var wire 1 0$ out $end
$upscope $end
$upscope $end
$scope module MUXC $end
$var wire 1 2$ a $end
$var wire 1 3$ b $end
$var wire 1 5 sel $end
$var wire 1 4$ sb $end
$var wire 1 5$ sa $end
$var wire 1 6$ out $end
$var wire 1 7$ nsel $end
$scope module AND1 $end
$var wire 1 2$ a $end
$var wire 1 5$ out $end
$var wire 1 7$ b $end
$upscope $end
$scope module AND2 $end
$var wire 1 3$ a $end
$var wire 1 5 b $end
$var wire 1 4$ out $end
$upscope $end
$scope module NOT $end
$var wire 1 5 in $end
$var wire 1 7$ out $end
$upscope $end
$scope module OR $end
$var wire 1 5$ a $end
$var wire 1 4$ b $end
$var wire 1 6$ out $end
$upscope $end
$upscope $end
$scope module MUXD $end
$var wire 1 8$ a $end
$var wire 1 9$ b $end
$var wire 1 5 sel $end
$var wire 1 :$ sb $end
$var wire 1 ;$ sa $end
$var wire 1 <$ out $end
$var wire 1 =$ nsel $end
$scope module AND1 $end
$var wire 1 8$ a $end
$var wire 1 ;$ out $end
$var wire 1 =$ b $end
$upscope $end
$scope module AND2 $end
$var wire 1 9$ a $end
$var wire 1 5 b $end
$var wire 1 :$ out $end
$upscope $end
$scope module NOT $end
$var wire 1 5 in $end
$var wire 1 =$ out $end
$upscope $end
$scope module OR $end
$var wire 1 ;$ a $end
$var wire 1 :$ b $end
$var wire 1 <$ out $end
$upscope $end
$upscope $end
$scope module MUXE $end
$var wire 1 >$ a $end
$var wire 1 ?$ b $end
$var wire 1 5 sel $end
$var wire 1 @$ sb $end
$var wire 1 A$ sa $end
$var wire 1 B$ out $end
$var wire 1 C$ nsel $end
$scope module AND1 $end
$var wire 1 >$ a $end
$var wire 1 A$ out $end
$var wire 1 C$ b $end
$upscope $end
$scope module AND2 $end
$var wire 1 ?$ a $end
$var wire 1 5 b $end
$var wire 1 @$ out $end
$upscope $end
$scope module NOT $end
$var wire 1 5 in $end
$var wire 1 C$ out $end
$upscope $end
$scope module OR $end
$var wire 1 A$ a $end
$var wire 1 @$ b $end
$var wire 1 B$ out $end
$upscope $end
$upscope $end
$scope module MUXF $end
$var wire 1 D$ a $end
$var wire 1 E$ b $end
$var wire 1 5 sel $end
$var wire 1 F$ sb $end
$var wire 1 G$ sa $end
$var wire 1 H$ out $end
$var wire 1 I$ nsel $end
$scope module AND1 $end
$var wire 1 D$ a $end
$var wire 1 G$ out $end
$var wire 1 I$ b $end
$upscope $end
$scope module AND2 $end
$var wire 1 E$ a $end
$var wire 1 5 b $end
$var wire 1 F$ out $end
$upscope $end
$scope module NOT $end
$var wire 1 5 in $end
$var wire 1 I$ out $end
$upscope $end
$scope module OR $end
$var wire 1 G$ a $end
$var wire 1 F$ b $end
$var wire 1 H$ out $end
$upscope $end
$upscope $end
$upscope $end
$scope module MUX2 $end
$var wire 16 J$ a [15:0] $end
$var wire 16 K$ b [15:0] $end
$var wire 1 - sel $end
$var wire 16 L$ out [15:0] $end
$scope module MUX0 $end
$var wire 1 M$ a $end
$var wire 1 N$ b $end
$var wire 1 - sel $end
$var wire 1 O$ sb $end
$var wire 1 P$ sa $end
$var wire 1 Q$ out $end
$var wire 1 R$ nsel $end
$scope module AND1 $end
$var wire 1 M$ a $end
$var wire 1 P$ out $end
$var wire 1 R$ b $end
$upscope $end
$scope module AND2 $end
$var wire 1 N$ a $end
$var wire 1 - b $end
$var wire 1 O$ out $end
$upscope $end
$scope module NOT $end
$var wire 1 - in $end
$var wire 1 R$ out $end
$upscope $end
$scope module OR $end
$var wire 1 P$ a $end
$var wire 1 O$ b $end
$var wire 1 Q$ out $end
$upscope $end
$upscope $end
$scope module MUX1 $end
$var wire 1 S$ a $end
$var wire 1 T$ b $end
$var wire 1 - sel $end
$var wire 1 U$ sb $end
$var wire 1 V$ sa $end
$var wire 1 W$ out $end
$var wire 1 X$ nsel $end
$scope module AND1 $end
$var wire 1 S$ a $end
$var wire 1 V$ out $end
$var wire 1 X$ b $end
$upscope $end
$scope module AND2 $end
$var wire 1 T$ a $end
$var wire 1 - b $end
$var wire 1 U$ out $end
$upscope $end
$scope module NOT $end
$var wire 1 - in $end
$var wire 1 X$ out $end
$upscope $end
$scope module OR $end
$var wire 1 V$ a $end
$var wire 1 U$ b $end
$var wire 1 W$ out $end
$upscope $end
$upscope $end
$scope module MUX2 $end
$var wire 1 Y$ a $end
$var wire 1 Z$ b $end
$var wire 1 - sel $end
$var wire 1 [$ sb $end
$var wire 1 \$ sa $end
$var wire 1 ]$ out $end
$var wire 1 ^$ nsel $end
$scope module AND1 $end
$var wire 1 Y$ a $end
$var wire 1 \$ out $end
$var wire 1 ^$ b $end
$upscope $end
$scope module AND2 $end
$var wire 1 Z$ a $end
$var wire 1 - b $end
$var wire 1 [$ out $end
$upscope $end
$scope module NOT $end
$var wire 1 - in $end
$var wire 1 ^$ out $end
$upscope $end
$scope module OR $end
$var wire 1 \$ a $end
$var wire 1 [$ b $end
$var wire 1 ]$ out $end
$upscope $end
$upscope $end
$scope module MUX3 $end
$var wire 1 _$ a $end
$var wire 1 `$ b $end
$var wire 1 - sel $end
$var wire 1 a$ sb $end
$var wire 1 b$ sa $end
$var wire 1 c$ out $end
$var wire 1 d$ nsel $end
$scope module AND1 $end
$var wire 1 _$ a $end
$var wire 1 b$ out $end
$var wire 1 d$ b $end
$upscope $end
$scope module AND2 $end
$var wire 1 `$ a $end
$var wire 1 - b $end
$var wire 1 a$ out $end
$upscope $end
$scope module NOT $end
$var wire 1 - in $end
$var wire 1 d$ out $end
$upscope $end
$scope module OR $end
$var wire 1 b$ a $end
$var wire 1 a$ b $end
$var wire 1 c$ out $end
$upscope $end
$upscope $end
$scope module MUX4 $end
$var wire 1 e$ a $end
$var wire 1 f$ b $end
$var wire 1 - sel $end
$var wire 1 g$ sb $end
$var wire 1 h$ sa $end
$var wire 1 i$ out $end
$var wire 1 j$ nsel $end
$scope module AND1 $end
$var wire 1 e$ a $end
$var wire 1 h$ out $end
$var wire 1 j$ b $end
$upscope $end
$scope module AND2 $end
$var wire 1 f$ a $end
$var wire 1 - b $end
$var wire 1 g$ out $end
$upscope $end
$scope module NOT $end
$var wire 1 - in $end
$var wire 1 j$ out $end
$upscope $end
$scope module OR $end
$var wire 1 h$ a $end
$var wire 1 g$ b $end
$var wire 1 i$ out $end
$upscope $end
$upscope $end
$scope module MUX5 $end
$var wire 1 k$ a $end
$var wire 1 l$ b $end
$var wire 1 - sel $end
$var wire 1 m$ sb $end
$var wire 1 n$ sa $end
$var wire 1 o$ out $end
$var wire 1 p$ nsel $end
$scope module AND1 $end
$var wire 1 k$ a $end
$var wire 1 n$ out $end
$var wire 1 p$ b $end
$upscope $end
$scope module AND2 $end
$var wire 1 l$ a $end
$var wire 1 - b $end
$var wire 1 m$ out $end
$upscope $end
$scope module NOT $end
$var wire 1 - in $end
$var wire 1 p$ out $end
$upscope $end
$scope module OR $end
$var wire 1 n$ a $end
$var wire 1 m$ b $end
$var wire 1 o$ out $end
$upscope $end
$upscope $end
$scope module MUX6 $end
$var wire 1 q$ a $end
$var wire 1 r$ b $end
$var wire 1 - sel $end
$var wire 1 s$ sb $end
$var wire 1 t$ sa $end
$var wire 1 u$ out $end
$var wire 1 v$ nsel $end
$scope module AND1 $end
$var wire 1 q$ a $end
$var wire 1 t$ out $end
$var wire 1 v$ b $end
$upscope $end
$scope module AND2 $end
$var wire 1 r$ a $end
$var wire 1 - b $end
$var wire 1 s$ out $end
$upscope $end
$scope module NOT $end
$var wire 1 - in $end
$var wire 1 v$ out $end
$upscope $end
$scope module OR $end
$var wire 1 t$ a $end
$var wire 1 s$ b $end
$var wire 1 u$ out $end
$upscope $end
$upscope $end
$scope module MUX7 $end
$var wire 1 w$ a $end
$var wire 1 x$ b $end
$var wire 1 - sel $end
$var wire 1 y$ sb $end
$var wire 1 z$ sa $end
$var wire 1 {$ out $end
$var wire 1 |$ nsel $end
$scope module AND1 $end
$var wire 1 w$ a $end
$var wire 1 z$ out $end
$var wire 1 |$ b $end
$upscope $end
$scope module AND2 $end
$var wire 1 x$ a $end
$var wire 1 - b $end
$var wire 1 y$ out $end
$upscope $end
$scope module NOT $end
$var wire 1 - in $end
$var wire 1 |$ out $end
$upscope $end
$scope module OR $end
$var wire 1 z$ a $end
$var wire 1 y$ b $end
$var wire 1 {$ out $end
$upscope $end
$upscope $end
$scope module MUX8 $end
$var wire 1 }$ a $end
$var wire 1 ~$ b $end
$var wire 1 - sel $end
$var wire 1 !% sb $end
$var wire 1 "% sa $end
$var wire 1 #% out $end
$var wire 1 $% nsel $end
$scope module AND1 $end
$var wire 1 }$ a $end
$var wire 1 "% out $end
$var wire 1 $% b $end
$upscope $end
$scope module AND2 $end
$var wire 1 ~$ a $end
$var wire 1 - b $end
$var wire 1 !% out $end
$upscope $end
$scope module NOT $end
$var wire 1 - in $end
$var wire 1 $% out $end
$upscope $end
$scope module OR $end
$var wire 1 "% a $end
$var wire 1 !% b $end
$var wire 1 #% out $end
$upscope $end
$upscope $end
$scope module MUX9 $end
$var wire 1 %% a $end
$var wire 1 &% b $end
$var wire 1 - sel $end
$var wire 1 '% sb $end
$var wire 1 (% sa $end
$var wire 1 )% out $end
$var wire 1 *% nsel $end
$scope module AND1 $end
$var wire 1 %% a $end
$var wire 1 (% out $end
$var wire 1 *% b $end
$upscope $end
$scope module AND2 $end
$var wire 1 &% a $end
$var wire 1 - b $end
$var wire 1 '% out $end
$upscope $end
$scope module NOT $end
$var wire 1 - in $end
$var wire 1 *% out $end
$upscope $end
$scope module OR $end
$var wire 1 (% a $end
$var wire 1 '% b $end
$var wire 1 )% out $end
$upscope $end
$upscope $end
$scope module MUXA $end
$var wire 1 +% a $end
$var wire 1 ,% b $end
$var wire 1 - sel $end
$var wire 1 -% sb $end
$var wire 1 .% sa $end
$var wire 1 /% out $end
$var wire 1 0% nsel $end
$scope module AND1 $end
$var wire 1 +% a $end
$var wire 1 .% out $end
$var wire 1 0% b $end
$upscope $end
$scope module AND2 $end
$var wire 1 ,% a $end
$var wire 1 - b $end
$var wire 1 -% out $end
$upscope $end
$scope module NOT $end
$var wire 1 - in $end
$var wire 1 0% out $end
$upscope $end
$scope module OR $end
$var wire 1 .% a $end
$var wire 1 -% b $end
$var wire 1 /% out $end
$upscope $end
$upscope $end
$scope module MUXB $end
$var wire 1 1% a $end
$var wire 1 2% b $end
$var wire 1 - sel $end
$var wire 1 3% sb $end
$var wire 1 4% sa $end
$var wire 1 5% out $end
$var wire 1 6% nsel $end
$scope module AND1 $end
$var wire 1 1% a $end
$var wire 1 4% out $end
$var wire 1 6% b $end
$upscope $end
$scope module AND2 $end
$var wire 1 2% a $end
$var wire 1 - b $end
$var wire 1 3% out $end
$upscope $end
$scope module NOT $end
$var wire 1 - in $end
$var wire 1 6% out $end
$upscope $end
$scope module OR $end
$var wire 1 4% a $end
$var wire 1 3% b $end
$var wire 1 5% out $end
$upscope $end
$upscope $end
$scope module MUXC $end
$var wire 1 7% a $end
$var wire 1 8% b $end
$var wire 1 - sel $end
$var wire 1 9% sb $end
$var wire 1 :% sa $end
$var wire 1 ;% out $end
$var wire 1 <% nsel $end
$scope module AND1 $end
$var wire 1 7% a $end
$var wire 1 :% out $end
$var wire 1 <% b $end
$upscope $end
$scope module AND2 $end
$var wire 1 8% a $end
$var wire 1 - b $end
$var wire 1 9% out $end
$upscope $end
$scope module NOT $end
$var wire 1 - in $end
$var wire 1 <% out $end
$upscope $end
$scope module OR $end
$var wire 1 :% a $end
$var wire 1 9% b $end
$var wire 1 ;% out $end
$upscope $end
$upscope $end
$scope module MUXD $end
$var wire 1 =% a $end
$var wire 1 >% b $end
$var wire 1 - sel $end
$var wire 1 ?% sb $end
$var wire 1 @% sa $end
$var wire 1 A% out $end
$var wire 1 B% nsel $end
$scope module AND1 $end
$var wire 1 =% a $end
$var wire 1 @% out $end
$var wire 1 B% b $end
$upscope $end
$scope module AND2 $end
$var wire 1 >% a $end
$var wire 1 - b $end
$var wire 1 ?% out $end
$upscope $end
$scope module NOT $end
$var wire 1 - in $end
$var wire 1 B% out $end
$upscope $end
$scope module OR $end
$var wire 1 @% a $end
$var wire 1 ?% b $end
$var wire 1 A% out $end
$upscope $end
$upscope $end
$scope module MUXE $end
$var wire 1 C% a $end
$var wire 1 D% b $end
$var wire 1 - sel $end
$var wire 1 E% sb $end
$var wire 1 F% sa $end
$var wire 1 G% out $end
$var wire 1 H% nsel $end
$scope module AND1 $end
$var wire 1 C% a $end
$var wire 1 F% out $end
$var wire 1 H% b $end
$upscope $end
$scope module AND2 $end
$var wire 1 D% a $end
$var wire 1 - b $end
$var wire 1 E% out $end
$upscope $end
$scope module NOT $end
$var wire 1 - in $end
$var wire 1 H% out $end
$upscope $end
$scope module OR $end
$var wire 1 F% a $end
$var wire 1 E% b $end
$var wire 1 G% out $end
$upscope $end
$upscope $end
$scope module MUXF $end
$var wire 1 I% a $end
$var wire 1 J% b $end
$var wire 1 - sel $end
$var wire 1 K% sb $end
$var wire 1 L% sa $end
$var wire 1 M% out $end
$var wire 1 N% nsel $end
$scope module AND1 $end
$var wire 1 I% a $end
$var wire 1 L% out $end
$var wire 1 N% b $end
$upscope $end
$scope module AND2 $end
$var wire 1 J% a $end
$var wire 1 - b $end
$var wire 1 K% out $end
$upscope $end
$scope module NOT $end
$var wire 1 - in $end
$var wire 1 N% out $end
$upscope $end
$scope module OR $end
$var wire 1 L% a $end
$var wire 1 K% b $end
$var wire 1 M% out $end
$upscope $end
$upscope $end
$upscope $end
$scope module OR1 $end
$var wire 1 5 a $end
$var wire 1 - b $end
$var wire 1 : out $end
$upscope $end
$scope module OR2 $end
$var wire 1 : a $end
$var wire 1 ; out $end
$var wire 1 / b $end
$upscope $end
$upscope $end
$scope module CEN $end
$var wire 1 & clk $end
$var wire 1 O% off $end
$var wire 1 P% on $end
$var wire 1 % out $end
$scope module SWITCH $end
$var wire 1 & clk $end
$var wire 1 Q% in $end
$var reg 1 % out $end
$upscope $end
$upscope $end
$scope module DFF_RUN $end
$var wire 1 & clk $end
$var wire 1 . off $end
$var wire 1 - on $end
$var wire 1 / out $end
$scope module SWITCH $end
$var wire 1 & clk $end
$var wire 1 R% in $end
$var reg 1 / out $end
$upscope $end
$upscope $end
$scope module LATCH $end
$var wire 1 & clk $end
$var wire 1 ! in $end
$var wire 1 + load $end
$var wire 1 1 out $end
$var wire 1 S% dffin $end
$scope module DFF $end
$var wire 1 & clk $end
$var wire 1 S% in $end
$var reg 1 1 out $end
$upscope $end
$scope module MUX $end
$var wire 1 1 a $end
$var wire 1 ! b $end
$var wire 1 + sel $end
$var wire 1 T% sb $end
$var wire 1 U% sa $end
$var wire 1 S% out $end
$var wire 1 V% nsel $end
$scope module AND1 $end
$var wire 1 1 a $end
$var wire 1 U% out $end
$var wire 1 V% b $end
$upscope $end
$scope module AND2 $end
$var wire 1 ! a $end
$var wire 1 + b $end
$var wire 1 T% out $end
$upscope $end
$scope module NOT $end
$var wire 1 + in $end
$var wire 1 V% out $end
$upscope $end
$scope module OR $end
$var wire 1 U% a $end
$var wire 1 T% b $end
$var wire 1 S% out $end
$upscope $end
$upscope $end
$upscope $end
$scope module SHIFTER $end
$var wire 1 & clk $end
$var wire 8 W% in [7:0] $end
$var wire 1 1 inLSB $end
$var wire 1 - load $end
$var wire 8 X% out [7:0] $end
$var wire 1 , shift $end
$var wire 1 Y% shiftload $end
$var wire 8 Z% shifter [7:0] $end
$var wire 8 [% next [7:0] $end
$scope module BIT0 $end
$var wire 1 & clk $end
$var wire 1 \% in $end
$var wire 1 ]% out $end
$var wire 1 Y% load $end
$var wire 1 ^% dffin $end
$scope module DFF $end
$var wire 1 & clk $end
$var wire 1 ^% in $end
$var reg 1 ]% out $end
$upscope $end
$scope module MUX $end
$var wire 1 ]% a $end
$var wire 1 \% b $end
$var wire 1 Y% sel $end
$var wire 1 _% sb $end
$var wire 1 `% sa $end
$var wire 1 ^% out $end
$var wire 1 a% nsel $end
$scope module AND1 $end
$var wire 1 ]% a $end
$var wire 1 `% out $end
$var wire 1 a% b $end
$upscope $end
$scope module AND2 $end
$var wire 1 \% a $end
$var wire 1 _% out $end
$var wire 1 Y% b $end
$upscope $end
$scope module NOT $end
$var wire 1 a% out $end
$var wire 1 Y% in $end
$upscope $end
$scope module OR $end
$var wire 1 `% a $end
$var wire 1 _% b $end
$var wire 1 ^% out $end
$upscope $end
$upscope $end
$upscope $end
$scope module BIT1 $end
$var wire 1 & clk $end
$var wire 1 b% in $end
$var wire 1 c% out $end
$var wire 1 Y% load $end
$var wire 1 d% dffin $end
$scope module DFF $end
$var wire 1 & clk $end
$var wire 1 d% in $end
$var reg 1 c% out $end
$upscope $end
$scope module MUX $end
$var wire 1 c% a $end
$var wire 1 b% b $end
$var wire 1 Y% sel $end
$var wire 1 e% sb $end
$var wire 1 f% sa $end
$var wire 1 d% out $end
$var wire 1 g% nsel $end
$scope module AND1 $end
$var wire 1 c% a $end
$var wire 1 f% out $end
$var wire 1 g% b $end
$upscope $end
$scope module AND2 $end
$var wire 1 b% a $end
$var wire 1 e% out $end
$var wire 1 Y% b $end
$upscope $end
$scope module NOT $end
$var wire 1 g% out $end
$var wire 1 Y% in $end
$upscope $end
$scope module OR $end
$var wire 1 f% a $end
$var wire 1 e% b $end
$var wire 1 d% out $end
$upscope $end
$upscope $end
$upscope $end
$scope module BIT2 $end
$var wire 1 & clk $end
$var wire 1 h% in $end
$var wire 1 i% out $end
$var wire 1 Y% load $end
$var wire 1 j% dffin $end
$scope module DFF $end
$var wire 1 & clk $end
$var wire 1 j% in $end
$var reg 1 i% out $end
$upscope $end
$scope module MUX $end
$var wire 1 i% a $end
$var wire 1 h% b $end
$var wire 1 Y% sel $end
$var wire 1 k% sb $end
$var wire 1 l% sa $end
$var wire 1 j% out $end
$var wire 1 m% nsel $end
$scope module AND1 $end
$var wire 1 i% a $end
$var wire 1 l% out $end
$var wire 1 m% b $end
$upscope $end
$scope module AND2 $end
$var wire 1 h% a $end
$var wire 1 k% out $end
$var wire 1 Y% b $end
$upscope $end
$scope module NOT $end
$var wire 1 m% out $end
$var wire 1 Y% in $end
$upscope $end
$scope module OR $end
$var wire 1 l% a $end
$var wire 1 k% b $end
$var wire 1 j% out $end
$upscope $end
$upscope $end
$upscope $end
$scope module BIT3 $end
$var wire 1 & clk $end
$var wire 1 n% in $end
$var wire 1 o% out $end
$var wire 1 Y% load $end
$var wire 1 p% dffin $end
$scope module DFF $end
$var wire 1 & clk $end
$var wire 1 p% in $end
$var reg 1 o% out $end
$upscope $end
$scope module MUX $end
$var wire 1 o% a $end
$var wire 1 n% b $end
$var wire 1 Y% sel $end
$var wire 1 q% sb $end
$var wire 1 r% sa $end
$var wire 1 p% out $end
$var wire 1 s% nsel $end
$scope module AND1 $end
$var wire 1 o% a $end
$var wire 1 r% out $end
$var wire 1 s% b $end
$upscope $end
$scope module AND2 $end
$var wire 1 n% a $end
$var wire 1 q% out $end
$var wire 1 Y% b $end
$upscope $end
$scope module NOT $end
$var wire 1 s% out $end
$var wire 1 Y% in $end
$upscope $end
$scope module OR $end
$var wire 1 r% a $end
$var wire 1 q% b $end
$var wire 1 p% out $end
$upscope $end
$upscope $end
$upscope $end
$scope module BIT4 $end
$var wire 1 & clk $end
$var wire 1 t% in $end
$var wire 1 u% out $end
$var wire 1 Y% load $end
$var wire 1 v% dffin $end
$scope module DFF $end
$var wire 1 & clk $end
$var wire 1 v% in $end
$var reg 1 u% out $end
$upscope $end
$scope module MUX $end
$var wire 1 u% a $end
$var wire 1 t% b $end
$var wire 1 Y% sel $end
$var wire 1 w% sb $end
$var wire 1 x% sa $end
$var wire 1 v% out $end
$var wire 1 y% nsel $end
$scope module AND1 $end
$var wire 1 u% a $end
$var wire 1 x% out $end
$var wire 1 y% b $end
$upscope $end
$scope module AND2 $end
$var wire 1 t% a $end
$var wire 1 w% out $end
$var wire 1 Y% b $end
$upscope $end
$scope module NOT $end
$var wire 1 y% out $end
$var wire 1 Y% in $end
$upscope $end
$scope module OR $end
$var wire 1 x% a $end
$var wire 1 w% b $end
$var wire 1 v% out $end
$upscope $end
$upscope $end
$upscope $end
$scope module BIT5 $end
$var wire 1 & clk $end
$var wire 1 z% in $end
$var wire 1 {% out $end
$var wire 1 Y% load $end
$var wire 1 |% dffin $end
$scope module DFF $end
$var wire 1 & clk $end
$var wire 1 |% in $end
$var reg 1 {% out $end
$upscope $end
$scope module MUX $end
$var wire 1 {% a $end
$var wire 1 z% b $end
$var wire 1 Y% sel $end
$var wire 1 }% sb $end
$var wire 1 ~% sa $end
$var wire 1 |% out $end
$var wire 1 !& nsel $end
$scope module AND1 $end
$var wire 1 {% a $end
$var wire 1 ~% out $end
$var wire 1 !& b $end
$upscope $end
$scope module AND2 $end
$var wire 1 z% a $end
$var wire 1 }% out $end
$var wire 1 Y% b $end
$upscope $end
$scope module NOT $end
$var wire 1 !& out $end
$var wire 1 Y% in $end
$upscope $end
$scope module OR $end
$var wire 1 ~% a $end
$var wire 1 }% b $end
$var wire 1 |% out $end
$upscope $end
$upscope $end
$upscope $end
$scope module BIT6 $end
$var wire 1 & clk $end
$var wire 1 "& in $end
$var wire 1 #& out $end
$var wire 1 Y% load $end
$var wire 1 $& dffin $end
$scope module DFF $end
$var wire 1 & clk $end
$var wire 1 $& in $end
$var reg 1 #& out $end
$upscope $end
$scope module MUX $end
$var wire 1 #& a $end
$var wire 1 "& b $end
$var wire 1 Y% sel $end
$var wire 1 %& sb $end
$var wire 1 && sa $end
$var wire 1 $& out $end
$var wire 1 '& nsel $end
$scope module AND1 $end
$var wire 1 #& a $end
$var wire 1 && out $end
$var wire 1 '& b $end
$upscope $end
$scope module AND2 $end
$var wire 1 "& a $end
$var wire 1 %& out $end
$var wire 1 Y% b $end
$upscope $end
$scope module NOT $end
$var wire 1 '& out $end
$var wire 1 Y% in $end
$upscope $end
$scope module OR $end
$var wire 1 && a $end
$var wire 1 %& b $end
$var wire 1 $& out $end
$upscope $end
$upscope $end
$upscope $end
$scope module BIT7 $end
$var wire 1 & clk $end
$var wire 1 (& in $end
$var wire 1 )& out $end
$var wire 1 Y% load $end
$var wire 1 *& dffin $end
$scope module DFF $end
$var wire 1 & clk $end
$var wire 1 *& in $end
$var reg 1 )& out $end
$upscope $end
$scope module MUX $end
$var wire 1 )& a $end
$var wire 1 (& b $end
$var wire 1 Y% sel $end
$var wire 1 +& sb $end
$var wire 1 ,& sa $end
$var wire 1 *& out $end
$var wire 1 -& nsel $end
$scope module AND1 $end
$var wire 1 )& a $end
$var wire 1 ,& out $end
$var wire 1 -& b $end
$upscope $end
$scope module AND2 $end
$var wire 1 (& a $end
$var wire 1 +& out $end
$var wire 1 Y% b $end
$upscope $end
$scope module NOT $end
$var wire 1 -& out $end
$var wire 1 Y% in $end
$upscope $end
$scope module OR $end
$var wire 1 ,& a $end
$var wire 1 +& b $end
$var wire 1 *& out $end
$upscope $end
$upscope $end
$upscope $end
$scope module MUX0 $end
$var wire 1 1 a $end
$var wire 1 .& b $end
$var wire 1 - sel $end
$var wire 1 /& sb $end
$var wire 1 0& sa $end
$var wire 1 1& out $end
$var wire 1 2& nsel $end
$scope module AND1 $end
$var wire 1 1 a $end
$var wire 1 0& out $end
$var wire 1 2& b $end
$upscope $end
$scope module AND2 $end
$var wire 1 .& a $end
$var wire 1 - b $end
$var wire 1 /& out $end
$upscope $end
$scope module NOT $end
$var wire 1 - in $end
$var wire 1 2& out $end
$upscope $end
$scope module OR $end
$var wire 1 0& a $end
$var wire 1 /& b $end
$var wire 1 1& out $end
$upscope $end
$upscope $end
$scope module MUX1 $end
$var wire 1 3& a $end
$var wire 1 4& b $end
$var wire 1 - sel $end
$var wire 1 5& sb $end
$var wire 1 6& sa $end
$var wire 1 7& out $end
$var wire 1 8& nsel $end
$scope module AND1 $end
$var wire 1 3& a $end
$var wire 1 6& out $end
$var wire 1 8& b $end
$upscope $end
$scope module AND2 $end
$var wire 1 4& a $end
$var wire 1 - b $end
$var wire 1 5& out $end
$upscope $end
$scope module NOT $end
$var wire 1 - in $end
$var wire 1 8& out $end
$upscope $end
$scope module OR $end
$var wire 1 6& a $end
$var wire 1 5& b $end
$var wire 1 7& out $end
$upscope $end
$upscope $end
$scope module MUX2 $end
$var wire 1 9& a $end
$var wire 1 :& b $end
$var wire 1 - sel $end
$var wire 1 ;& sb $end
$var wire 1 <& sa $end
$var wire 1 =& out $end
$var wire 1 >& nsel $end
$scope module AND1 $end
$var wire 1 9& a $end
$var wire 1 <& out $end
$var wire 1 >& b $end
$upscope $end
$scope module AND2 $end
$var wire 1 :& a $end
$var wire 1 - b $end
$var wire 1 ;& out $end
$upscope $end
$scope module NOT $end
$var wire 1 - in $end
$var wire 1 >& out $end
$upscope $end
$scope module OR $end
$var wire 1 <& a $end
$var wire 1 ;& b $end
$var wire 1 =& out $end
$upscope $end
$upscope $end
$scope module MUX3 $end
$var wire 1 ?& a $end
$var wire 1 @& b $end
$var wire 1 - sel $end
$var wire 1 A& sb $end
$var wire 1 B& sa $end
$var wire 1 C& out $end
$var wire 1 D& nsel $end
$scope module AND1 $end
$var wire 1 ?& a $end
$var wire 1 B& out $end
$var wire 1 D& b $end
$upscope $end
$scope module AND2 $end
$var wire 1 @& a $end
$var wire 1 - b $end
$var wire 1 A& out $end
$upscope $end
$scope module NOT $end
$var wire 1 - in $end
$var wire 1 D& out $end
$upscope $end
$scope module OR $end
$var wire 1 B& a $end
$var wire 1 A& b $end
$var wire 1 C& out $end
$upscope $end
$upscope $end
$scope module MUX4 $end
$var wire 1 E& a $end
$var wire 1 F& b $end
$var wire 1 - sel $end
$var wire 1 G& sb $end
$var wire 1 H& sa $end
$var wire 1 I& out $end
$var wire 1 J& nsel $end
$scope module AND1 $end
$var wire 1 E& a $end
$var wire 1 H& out $end
$var wire 1 J& b $end
$upscope $end
$scope module AND2 $end
$var wire 1 F& a $end
$var wire 1 - b $end
$var wire 1 G& out $end
$upscope $end
$scope module NOT $end
$var wire 1 - in $end
$var wire 1 J& out $end
$upscope $end
$scope module OR $end
$var wire 1 H& a $end
$var wire 1 G& b $end
$var wire 1 I& out $end
$upscope $end
$upscope $end
$scope module MUX5 $end
$var wire 1 K& a $end
$var wire 1 L& b $end
$var wire 1 - sel $end
$var wire 1 M& sb $end
$var wire 1 N& sa $end
$var wire 1 O& out $end
$var wire 1 P& nsel $end
$scope module AND1 $end
$var wire 1 K& a $end
$var wire 1 N& out $end
$var wire 1 P& b $end
$upscope $end
$scope module AND2 $end
$var wire 1 L& a $end
$var wire 1 - b $end
$var wire 1 M& out $end
$upscope $end
$scope module NOT $end
$var wire 1 - in $end
$var wire 1 P& out $end
$upscope $end
$scope module OR $end
$var wire 1 N& a $end
$var wire 1 M& b $end
$var wire 1 O& out $end
$upscope $end
$upscope $end
$scope module MUX6 $end
$var wire 1 Q& a $end
$var wire 1 R& b $end
$var wire 1 - sel $end
$var wire 1 S& sb $end
$var wire 1 T& sa $end
$var wire 1 U& out $end
$var wire 1 V& nsel $end
$scope module AND1 $end
$var wire 1 Q& a $end
$var wire 1 T& out $end
$var wire 1 V& b $end
$upscope $end
$scope module AND2 $end
$var wire 1 R& a $end
$var wire 1 - b $end
$var wire 1 S& out $end
$upscope $end
$scope module NOT $end
$var wire 1 - in $end
$var wire 1 V& out $end
$upscope $end
$scope module OR $end
$var wire 1 T& a $end
$var wire 1 S& b $end
$var wire 1 U& out $end
$upscope $end
$upscope $end
$scope module MUX7 $end
$var wire 1 W& a $end
$var wire 1 X& b $end
$var wire 1 - sel $end
$var wire 1 Y& sb $end
$var wire 1 Z& sa $end
$var wire 1 [& out $end
$var wire 1 \& nsel $end
$scope module AND1 $end
$var wire 1 W& a $end
$var wire 1 Z& out $end
$var wire 1 \& b $end
$upscope $end
$scope module AND2 $end
$var wire 1 X& a $end
$var wire 1 - b $end
$var wire 1 Y& out $end
$upscope $end
$scope module NOT $end
$var wire 1 - in $end
$var wire 1 \& out $end
$upscope $end
$scope module OR $end
$var wire 1 Z& a $end
$var wire 1 Y& b $end
$var wire 1 [& out $end
$upscope $end
$upscope $end
$scope module OR $end
$var wire 1 , a $end
$var wire 1 - b $end
$var wire 1 Y% out $end
$upscope $end
$upscope $end
$upscope $end
$upscope $end
$enddefinitions $end
#0
$dumpvars
1\&
0[&
0Z&
0Y&
0X&
0W&
1V&
0U&
0T&
0S&
0R&
0Q&
1P&
0O&
0N&
0M&
1L&
0K&
1J&
0I&
0H&
0G&
0F&
0E&
1D&
0C&
0B&
0A&
1@&
0?&
1>&
0=&
0<&
0;&
0:&
09&
18&
07&
06&
05&
14&
03&
12&
01&
00&
0/&
0.&
1-&
0,&
0+&
0*&
0)&
0(&
1'&
0&&
0%&
0$&
0#&
0"&
1!&
0~%
0}%
0|%
0{%
0z%
1y%
0x%
0w%
0v%
0u%
0t%
1s%
0r%
0q%
0p%
0o%
0n%
1m%
0l%
0k%
0j%
0i%
0h%
1g%
0f%
0e%
0d%
0c%
0b%
1a%
0`%
0_%
0^%
0]%
0\%
b0 [%
b0 Z%
0Y%
b0 X%
b101010 W%
1V%
0U%
0T%
0S%
0R%
0Q%
0P%
0O%
1N%
0M%
0L%
0K%
0J%
0I%
1H%
0G%
0F%
0E%
0D%
0C%
1B%
0A%
0@%
0?%
0>%
0=%
1<%
0;%
0:%
09%
08%
07%
16%
05%
04%
03%
02%
01%
10%
0/%
0.%
0-%
0,%
0+%
1*%
0)%
0(%
0'%
0&%
0%%
1$%
0#%
0"%
0!%
0~$
0}$
1|$
0{$
0z$
0y$
0x$
0w$
1v$
0u$
0t$
0s$
0r$
0q$
1p$
0o$
0n$
0m$
0l$
0k$
1j$
0i$
0h$
0g$
0f$
0e$
1d$
0c$
0b$
0a$
0`$
0_$
1^$
0]$
0\$
0[$
0Z$
0Y$
1X$
0W$
0V$
0U$
0T$
0S$
1R$
1Q$
1P$
0O$
0N$
1M$
b1 L$
b0 K$
b1 J$
1I$
0H$
0G$
0F$
0E$
0D$
1C$
0B$
0A$
0@$
0?$
0>$
1=$
0<$
0;$
0:$
09$
08$
17$
06$
05$
04$
03$
02$
11$
00$
0/$
0.$
0-$
0,$
1+$
0*$
0)$
0($
0'$
0&$
1%$
0$$
0#$
0"$
0!$
0~#
1}#
0|#
0{#
0z#
0y#
0x#
1w#
0v#
0u#
0t#
0s#
0r#
1q#
0p#
0o#
0n#
0m#
0l#
1k#
0j#
0i#
0h#
0g#
0f#
1e#
0d#
0c#
0b#
0a#
0`#
1_#
0^#
0]#
0\#
0[#
0Z#
1Y#
0X#
0W#
0V#
0U#
0T#
1S#
0R#
0Q#
0P#
0O#
0N#
1M#
1L#
1K#
0J#
0I#
1H#
b1 G#
b0 F#
b1 E#
1D#
1C#
1B#
0A#
0@#
1?#
1>#
1=#
0<#
0;#
1:#
19#
18#
07#
06#
15#
14#
13#
02#
01#
10#
1/#
1.#
0-#
0,#
1+#
1*#
1)#
0(#
0'#
1&#
1%#
1$#
0##
0"#
1!#
1~"
1}"
0|"
0{"
1z"
1y"
1x"
0w"
0v"
1u"
1t"
1s"
0r"
0q"
1p"
1o"
1n"
0m"
0l"
1k"
1j"
1i"
0h"
0g"
1f"
1e"
1d"
0c"
0b"
1a"
1`"
1_"
0^"
0]"
1\"
1["
1Z"
0Y"
0X"
1W"
1V"
0U"
1T"
1S"
0R"
0Q"
0P"
0O"
0N"
0M"
0L"
0K"
0J"
0I"
0H"
0G"
0F"
0E"
0D"
0C"
0B"
b1 A"
b0 @"
1?"
0>"
0="
0<"
0;"
0:"
19"
08"
07"
06"
05"
04"
13"
02"
01"
00"
0/"
0."
1-"
0,"
0+"
0*"
0)"
0("
1'"
0&"
0%"
0$"
0#"
0""
1!"
0~
0}
0|
0{
0z
1y
0x
0w
0v
0u
0t
1s
0r
0q
0p
0o
0n
1m
0l
0k
0j
0i
0h
1g
0f
0e
0d
0c
0b
1a
0`
0_
0^
0]
0\
1[
0Z
0Y
0X
0W
0V
1U
0T
0S
0R
0Q
0P
1O
0N
0M
0L
0K
0J
1I
0H
0G
0F
0E
0D
1C
0B
0A
0@
0?
1>
b1 =
b0 <
0;
0:
b1 9
b1 8
b1 7
b0 6
05
b0 4
b0 3
b0 2
01
b0 0
0/
0.
0-
0,
0+
1*
b101010 )
0(
b101010 '
0&
0%
0$
b0 #
0"
1!
$end
#1
1&
#2
1d%
1p%
1|%
0>
0@
1e%
1q%
1}%
b0 9
b0 =
b0 L$
0Q$
0?"
09"
03"
0-"
0'"
0!"
0y
0s
0m
0g
0a
0[
0U
0O
0I
0C
0A
1b%
1n%
1z%
0P$
1;
1R%
17&
1C&
b101010 [%
1O&
0-&
0'&
0!&
0y%
0s%
0m%
0g%
0a%
1O%
0R$
0X$
0^$
0d$
0j$
0p$
0v$
0|$
0$%
0*%
00%
06%
0<%
0B%
0H%
0N%
1:
02&
15&
08&
0>&
1A&
0D&
0J&
1M&
0P&
0V&
0\&
1Y%
1-
0&
1(
#3
1&
#4
1h%
1t%
1"&
1@
1S%
1=&
1I&
1U&
1A
1T%
0V%
1<&
1H&
1T&
1+
0*
1f%
19&
1r%
1E&
1~%
1Q&
1/
1c%
1o%
b1000000000101010 #
b1000000000101010 0
b101010 2
b101010 X%
b101010 Z%
1{%
1>
b1 9
b1 =
b1 L$
1Q$
0?"
09"
03"
0-"
0'"
0!"
0y
0s
0m
0g
0a
0[
0U
0O
0I
0C
0b%
0n%
0z%
1|%
1p%
1d%
1P$
1;
1R%
07&
0C&
b1010100 [%
0O&
1-&
1'&
1!&
0}%
1y%
1s%
0q%
1m%
1g%
0e%
1a%
0O%
1R$
1X$
1^$
1d$
1j$
1p$
1v$
1|$
1$%
1*%
10%
16%
1<%
1B%
1H%
1N%
0:
12&
05&
18&
1>&
0A&
1D&
1J&
0M&
1P&
1V&
1\&
0Y%
0-
0&
0(
#5
1&
#6
1F
0@
1G
0A
1D
0>
1W$
b10 9
b10 =
b10 L$
0Q$
1V$
0P$
1S$
0M$
1R#
b10 8
b10 G#
b10 J$
0L#
1Q#
0K#
0|%
0p%
0d%
1N#
0H#
1$&
0~%
1v%
0r%
1j%
0f%
1^%
1U%
1Y"
b10 7
b10 A"
b10 E#
0T"
0-&
0'&
1%&
0!&
0y%
1w%
0s%
0m%
1k%
0g%
0a%
1_%
0T%
1V%
1\%
0Z"
1U"
1Y%
0+
b1010101 [%
11&
1Q"
0W"
1V"
1,
10&
1R"
1"
11
b1 3
b1 6
b1 <
b1 @"
1?
0&
#7
1&
#8
1@
0p
1F
1A
0q
1G
1>
0n
1D
1Q$
0]$
b11 9
b11 =
b11 L$
1W$
1P$
0\$
1V$
1M$
0Y$
1S$
1L#
0X#
b11 8
b11 G#
b11 J$
1R#
1K#
0W#
1Q#
1H#
1&&
1$&
1x%
1v%
1l%
1j%
1`%
1^%
0U%
0T#
1N#
1T"
1-&
1'&
0%&
1!&
1y%
0w%
1s%
1m%
0k%
1g%
1a%
0_%
1T%
0V%
0|"
b11 7
b11 A"
b11 E#
1Y"
1b%
0h%
1n%
0t%
1z%
0"&
1(&
0U"
0Y%
1+
1}"
1Z"
17&
0=&
1C&
0I&
1O&
0U&
b10101011 [%
1[&
0Q"
1W"
0,
0P"
1\"
0["
16&
0<&
1B&
0H&
1N&
0T&
1Z&
0R"
0"
1X"
13&
09&
1?&
0E&
1K&
0Q&
1W&
0?
b10 3
b10 6
b10 <
b10 @"
1E
1]%
0c%
1i%
0o%
1u%
0{%
b1000000001010101 #
b1000000001010101 0
b1010101 2
b1010101 X%
b1010101 Z%
1#&
0&
#9
1&
#10
1p
0F
1q
0G
0@
1n
0D
0A
1]$
0W$
0>
1\$
0V$
b100 9
b100 =
b100 L$
0Q$
1Y$
0S$
0P$
1X#
0R#
0M$
1W#
0Q#
b100 8
b100 G#
b100 J$
0L#
1T#
0N#
0K#
0$&
0v%
0j%
1|"
0Y"
0H#
1*&
0&&
1|%
0x%
1p%
0l%
1d%
0`%
1U%
0}"
1["
b100 7
b100 A"
b100 E#
0T"
0-&
1+&
0'&
0!&
1}%
0y%
0s%
1q%
0m%
0g%
1e%
0a%
1_%
0T%
1V%
1P"
0\"
1Z"
1U"
1Y%
0+
1Q"
0W"
1V"
1,
1R"
1"
b11 3
b11 6
b11 <
b11 @"
1?
0&
#11
1&
#12
1@
0v
1p
1A
0w
1q
1>
0t
1n
1Q$
0c$
b101 9
b101 =
b101 L$
1]$
1P$
0b$
1\$
1M$
0_$
1Y$
1L#
0^#
b101 8
b101 G#
b101 J$
1X#
1K#
0S%
0]#
1W#
1H#
1,&
1*&
1~%
1|%
1r%
1p%
1f%
1d%
1`%
1^%
0U%
0Z#
1T#
1T"
1-&
0+&
1'&
1!&
0}%
1y%
1s%
0q%
1m%
1g%
0e%
1a%
0_%
0V%
0##
b101 7
b101 A"
b101 E#
1|"
1h%
0n%
1t%
0z%
1"&
0(&
0U"
0Y%
1+
1$#
1}"
1=&
0C&
1I&
0O&
1U&
b1010111 [%
0[&
0Q"
1W"
0,
0P"
1\"
0I"
1!#
0~"
1<&
0B&
1H&
0N&
1T&
0Z&
0!
0R"
0"
0X"
1{"
19&
0?&
1E&
0K&
1Q&
0W&
1$
0?
0E
b100 3
b100 6
b100 <
b100 @"
1o
1c%
0i%
1o%
0u%
1{%
0#&
b1000000010101011 #
b1000000010101011 0
b10101011 2
b10101011 X%
b10101011 Z%
1)&
0&
#13
1&
#14
1F
0@
1G
0A
1D
0>
1W$
b110 9
b110 =
b110 L$
0Q$
1V$
0P$
1S$
0M$
1R#
b110 8
b110 G#
b110 J$
0L#
1Q#
0K#
0*&
0|%
0p%
0^%
1N#
0H#
0,&
1$&
0~%
1v%
0r%
1j%
0f%
0`%
1Y"
b110 7
b110 A"
b110 E#
0T"
0-&
0'&
1%&
0!&
0y%
1w%
0s%
0m%
1k%
0g%
1e%
0a%
1V%
0\%
0Z"
1U"
1Y%
0+
b1010110 [%
01&
1Q"
0W"
1V"
1,
00&
1R"
1"
01
b101 3
b101 6
b101 <
b101 @"
1?
0&
#15
1&
#16
0v
1p
1@
0w
1q
1F
1A
0t
1n
1G
1>
0c$
1]$
1D
1Q$
0b$
1\$
b111 9
b111 =
b111 L$
1W$
1P$
0_$
1Y$
1V$
1M$
0^#
1X#
1S$
1L#
0]#
1W#
b111 8
b111 G#
b111 J$
1R#
1K#
0Z#
1T#
1Q#
1H#
1&&
1$&
1x%
1v%
1l%
1j%
1f%
1d%
1S%
0##
1|"
1N#
1T"
1-&
1'&
0%&
1!&
1y%
0w%
1s%
1m%
0k%
1g%
0e%
1a%
1T%
0V%
1$#
0~"
b111 7
b111 A"
b111 E#
1Y"
0b%
1n%
0t%
1z%
0"&
1(&
0U"
0Y%
1+
0I"
1!#
1}"
1Z"
07&
1C&
0I&
1O&
0U&
b10101100 [%
1[&
0Q"
1W"
0,
0P"
1\"
0["
06&
1B&
0H&
1N&
0T&
1Z&
1!
0R"
0"
1X"
03&
1?&
0E&
1K&
0Q&
1W&
0$
0?
b110 3
b110 6
b110 <
b110 @"
1E
0]%
1i%
0o%
1u%
0{%
1#&
b1000000001010110 #
b1000000001010110 0
b1010110 2
b1010110 X%
b1010110 Z%
0)&
0&
#17
1&
#18
1v
0p
1w
0q
0F
1t
0n
0G
0@
1c$
0]$
0D
0A
1b$
0\$
0W$
0>
1_$
0Y$
0V$
b1000 9
b1000 =
b1000 L$
0Q$
1^#
0X#
0S$
0P$
1]#
0W#
0R#
0M$
1Z#
0T#
0Q#
b1000 8
b1000 G#
b1000 J$
0L#
1##
0|"
0N#
0K#
0$&
0v%
0d%
0$#
1~"
0Y"
0H#
1*&
0&&
1|%
0x%
1p%
0l%
0f%
1^%
1U%
1I"
0!#
1}"
1["
b1000 7
b1000 A"
b1000 E#
0T"
0-&
1+&
0'&
0!&
1}%
0y%
0s%
1q%
0m%
1k%
0g%
0a%
1_%
0T%
1V%
1\%
1P"
0\"
1Z"
1U"
1Y%
0+
b10101101 [%
11&
1Q"
0W"
1V"
1,
10&
1R"
1"
11
b111 3
b111 6
b111 <
b111 @"
1?
0&
#19
1&
#20
1@
0|
1v
1A
0}
1w
1>
0z
1t
1Q$
0i$
b1001 9
b1001 =
b1001 L$
1c$
1P$
0h$
1b$
1M$
0e$
1_$
1L#
0d#
b1001 8
b1001 G#
b1001 J$
1^#
1K#
0S%
0c#
1]#
1H#
1,&
1*&
1~%
1|%
1r%
1p%
1l%
1j%
1`%
1^%
0U%
0`#
1Z#
1T"
1-&
0+&
1'&
1!&
0}%
1y%
1s%
0q%
1m%
0k%
1g%
1a%
0_%
0V%
0(#
b1001 7
b1001 A"
b1001 E#
1##
1b%
0h%
1t%
0z%
1"&
0(&
0U"
0Y%
1+
1)#
1$#
17&
0=&
1I&
0O&
1U&
b1011011 [%
0[&
0Q"
1W"
0,
0P"
1\"
0I"
1!#
0H"
1&#
0%#
16&
0<&
1H&
0N&
1T&
0Z&
0!
0R"
0"
0X"
0{"
1"#
13&
09&
1E&
0K&
1Q&
0W&
1$
0?
0E
0o
b1000 3
b1000 6
b1000 <
b1000 @"
1u
1]%
0c%
1o%
0u%
1{%
0#&
b1000000010101101 #
b1000000010101101 0
b10101101 2
b10101101 X%
b10101101 Z%
1)&
0&
#21
1&
#22
1F
0@
1G
0A
1D
0>
1W$
b1010 9
b1010 =
b1010 L$
0Q$
1V$
0P$
1S$
0M$
1R#
b1010 8
b1010 G#
b1010 J$
0L#
1Q#
0K#
0*&
0|%
0j%
0^%
1N#
0H#
0,&
1$&
0~%
1v%
0r%
0l%
1d%
0`%
1Y"
b1010 7
b1010 A"
b1010 E#
0T"
0-&
0'&
1%&
0!&
0y%
1w%
0s%
1q%
0m%
0g%
1e%
0a%
1V%
0\%
0Z"
1U"
1Y%
0+
b1011010 [%
01&
1Q"
0W"
1V"
1,
00&
1R"
1"
01
b1001 3
b1001 6
b1001 <
b1001 @"
1?
0&
#23
1&
#24
1@
0p
1F
1A
0q
1G
1>
0n
1D
1Q$
0]$
b1011 9
b1011 =
b1011 L$
1W$
1P$
0\$
1V$
1M$
0Y$
1S$
1L#
0X#
b1011 8
b1011 G#
b1011 J$
1R#
1K#
0W#
1Q#
1H#
1&&
1$&
1x%
1v%
1r%
1p%
1f%
1d%
1S%
0T#
1N#
1T"
1-&
1'&
0%&
1!&
1y%
0w%
1s%
0q%
1m%
1g%
0e%
1a%
1T%
0V%
0|"
b1011 7
b1011 A"
b1011 E#
1Y"
0b%
1h%
0n%
1z%
0"&
1(&
0U"
0Y%
1+
1}"
1Z"
07&
1=&
0C&
1O&
0U&
b10110100 [%
1[&
0Q"
1W"
0,
0P"
1\"
0["
06&
1<&
0B&
1N&
0T&
1Z&
1!
0R"
0"
1X"
03&
19&
0?&
1K&
0Q&
1W&
0$
0?
b1010 3
b1010 6
b1010 <
b1010 @"
1E
0]%
1c%
0i%
1u%
0{%
1#&
b1000000001011010 #
b1000000001011010 0
b1011010 2
b1011010 X%
b1011010 Z%
0)&
0&
#25
1&
#26
1p
0F
1q
0G
0@
1n
0D
0A
1]$
0W$
0>
1\$
0V$
b1100 9
b1100 =
b1100 L$
0Q$
1Y$
0S$
0P$
1X#
0R#
0M$
1W#
0Q#
b1100 8
b1100 G#
b1100 J$
0L#
1T#
0N#
0K#
0$&
0p%
0d%
1|"
0Y"
0H#
1*&
0&&
1|%
0x%
0r%
1j%
0f%
1^%
1U%
0}"
1["
b1100 7
b1100 A"
b1100 E#
0T"
0-&
1+&
0'&
0!&
1}%
0y%
1w%
0s%
0m%
1k%
0g%
0a%
1_%
0T%
1V%
1\%
1P"
0\"
1Z"
1U"
1Y%
0+
b10110101 [%
11&
1Q"
0W"
1V"
1,
10&
1R"
1"
11
b1011 3
b1011 6
b1011 <
b1011 @"
1?
0&
#27
1&
#28
0|
1v
1@
0}
1w
1p
1A
0z
1t
1q
1>
0i$
1c$
1n
1Q$
0h$
1b$
b1101 9
b1101 =
b1101 L$
1]$
1P$
0e$
1_$
1\$
1M$
0d#
1^#
1Y$
1L#
0c#
1]#
b1101 8
b1101 G#
b1101 J$
1X#
1K#
0S%
0`#
1Z#
1W#
1H#
1,&
1*&
1~%
1|%
1x%
1v%
1l%
1j%
1`%
1^%
0U%
0(#
1##
1T#
1T"
1-&
0+&
1'&
1!&
0}%
1y%
0w%
1s%
1m%
0k%
1g%
1a%
0_%
0V%
1)#
0%#
b1101 7
b1101 A"
b1101 E#
1|"
1b%
0h%
1n%
0t%
1"&
0(&
0U"
0Y%
1+
0H"
1&#
1$#
1}"
17&
0=&
1C&
0I&
1U&
b1101011 [%
0[&
0Q"
1W"
0,
0P"
1\"
0I"
1!#
0~"
16&
0<&
1B&
0H&
1T&
0Z&
0!
0R"
0"
0X"
1{"
13&
09&
1?&
0E&
1Q&
0W&
1$
0?
0E
b1100 3
b1100 6
b1100 <
b1100 @"
1o
1]%
0c%
1i%
0o%
1{%
0#&
b1000000010110101 #
b1000000010110101 0
b10110101 2
b10110101 X%
b10110101 Z%
1)&
0&
#29
1&
#30
1F
0@
1G
0A
1D
0>
1W$
b1110 9
b1110 =
b1110 L$
0Q$
1V$
0P$
1S$
0M$
1R#
b1110 8
b1110 G#
b1110 J$
0L#
1Q#
0K#
0*&
0v%
0j%
0^%
1N#
0H#
0,&
1$&
0~%
0x%
1p%
0l%
1d%
0`%
1Y"
b1110 7
b1110 A"
b1110 E#
0T"
0-&
0'&
1%&
0!&
1}%
0y%
0s%
1q%
0m%
0g%
1e%
0a%
1V%
0\%
0Z"
1U"
1Y%
0+
b1101010 [%
01&
1Q"
0W"
1V"
1,
00&
1R"
1"
01
b1101 3
b1101 6
b1101 <
b1101 @"
1?
0&
#31
1&
#32
0|
1v
0}
1w
1p
1@
0z
1t
1q
1F
1A
0i$
1c$
1n
1G
1>
0h$
1b$
1]$
1D
1Q$
0e$
1_$
1\$
b1111 9
b1111 =
b1111 L$
1W$
1P$
0d#
1^#
1Y$
1V$
1M$
0c#
1]#
1X#
1S$
1L#
0`#
1Z#
1W#
b1111 8
b1111 G#
b1111 J$
1R#
1K#
0(#
1##
1T#
1Q#
1H#
1&&
1$&
1~%
1|%
1r%
1p%
1f%
1d%
1S%
1)#
0%#
1|"
1N#
1T"
1-&
1'&
0%&
1!&
0}%
1y%
1s%
0q%
1m%
1g%
0e%
1a%
1T%
0V%
0H"
1&#
1$#
0~"
b1111 7
b1111 A"
b1111 E#
1Y"
0b%
1h%
0n%
1t%
0z%
1(&
0U"
0Y%
1+
0I"
1!#
1}"
1Z"
07&
1=&
0C&
1I&
0O&
b11010100 [%
1[&
0Q"
1W"
0,
0P"
1\"
0["
06&
1<&
0B&
1H&
0N&
1Z&
1!
0R"
0"
1X"
03&
19&
0?&
1E&
0K&
1W&
0$
0?
b1110 3
b1110 6
b1110 <
b1110 @"
1E
0]%
1c%
0i%
1o%
0u%
1#&
b1000000001101010 #
b1000000001101010 0
b1101010 2
b1101010 X%
b1101010 Z%
0)&
0&
#33
1&
#34
1|
0v
1}
0w
0p
1z
0t
0q
0F
1i$
0c$
0n
0G
0@
1h$
0b$
0]$
0D
0A
1e$
0_$
0\$
0W$
0>
1d#
0^#
0Y$
0V$
b10000 9
b10000 =
b10000 L$
0Q$
1c#
0]#
0X#
0S$
0P$
1`#
0Z#
0W#
0R#
0M$
1(#
0##
0T#
0Q#
b10000 8
b10000 G#
b10000 J$
0L#
0)#
1%#
0|"
0N#
0K#
0|%
0p%
0d%
1H"
0&#
1$#
1~"
0Y"
0H#
0R%
1*&
0&&
0~%
1v%
0r%
1j%
0f%
1^%
1U%
1I"
0!#
1}"
1["
b10000 7
b10000 A"
b10000 E#
0T"
0-&
1+&
0'&
1%&
0!&
0y%
1w%
0s%
0m%
1k%
0g%
0a%
1_%
0T%
1V%
1\%
1P"
0\"
1Z"
1U"
1Y%
0+
b11010101 [%
11&
1Q"
0W"
1V"
1.
1,
10&
1R"
1"
11
b1111 3
b1111 6
b1111 <
b1111 @"
1?
0&
#35
1&
#36
1>
0""
1z
1Q$
0o$
b10001 9
b10001 =
b10001 L$
1i$
1P$
0n$
1h$
1M$
0k$
1e$
1L#
0j#
b10001 8
b10001 G#
b10001 J$
1d#
1K#
0i#
1c#
1H#
0f#
1`#
1,&
1*&
1&&
1$&
1x%
1v%
1l%
1j%
1`%
1^%
1T"
0-#
b10001 7
b10001 A"
b10001 E#
1(#
1b%
0h%
1n%
0t%
1z%
0"&
1~
1|
1-&
0+&
1'&
0%&
1!&
1y%
0w%
1s%
1m%
0k%
1g%
1a%
0_%
0U"
1.#
1)#
17&
0=&
1C&
0I&
1O&
b10101011 [%
0U&
1?"
19"
13"
1-"
1'"
1!"
0}
1y
1s
1m
1g
1a
1[
1U
1O
1I
1C
0Y%
0Q"
1W"
0.
0P"
1\"
0I"
1!#
0H"
1&#
0G"
1+#
0*#
16&
0<&
1B&
0H&
1N&
0T&
0!
0;
0,
1*
0R"
0"
0X"
0{"
0"#
1'#
13&
09&
1?&
0E&
1K&
0Q&
1$
0/
0?
0E
0o
0u
b10000 3
b10000 6
b10000 <
b10000 @"
1{
1]%
0c%
1i%
0o%
1u%
0{%
b11010101 #
b11010101 0
b11010101 2
b11010101 X%
b11010101 Z%
1)&
0&
#37
1&
#38
0&
#39
1&
#40
0&
#41
1&
#42
0&
#43
1&
#44
0&
#45
1&
#46
0|
1w%
1%&
0b%
1t%
1"&
0>
0z
0~
0@
1$&
1v%
0j%
07&
1I&
b11111001 [%
1U&
1Q%
0Q$
b0 9
b0 =
b0 L$
0i$
0?"
09"
03"
0-"
0'"
0!"
0}
0y
0s
0m
0g
0a
0[
0U
0O
0I
0C
0A
0,&
0&&
1|%
0x%
1p%
0l%
0d%
0`%
1/&
1G&
1S&
1Y&
0P$
0h$
1;
1R%
00&
06&
0B&
0N&
0Z&
0-&
1+&
0'&
0!&
1}%
0y%
0s%
1q%
0m%
0g%
0e%
0a%
1_%
1.&
04&
1F&
1R&
1X&
1P%
0O%
0R$
0X$
0^$
0d$
0j$
0p$
0v$
0|$
0$%
0*%
00%
06%
0<%
0B%
0H%
0N%
1:
02&
05&
08&
0>&
1A&
0D&
0J&
1M&
0P&
0V&
0\&
1Y%
b11111001 W%
1-
0&
b1111111111111001 '
b1111111111111001 )
1(
#47
1&
#48
0e$
b1 8
b1 G#
b1 J$
0d#
0c#
0S%
0`#
0n%
1@
0U%
b1 7
b1 A"
b1 E#
0(#
0C&
0}
1A
0V%
1*#
1H&
1T&
1+
0*
0'#
0?&
1r%
1E&
1~%
1Q&
1%
1/
b0 3
b0 6
b0 <
b0 @"
0{
0i%
1o%
b1000000011111001 #
b1000000011111001 0
b11111001 2
b11111001 X%
b11111001 Z%
1{%
0|
1>
0z
0~
1b%
0j%
1Q%
1Q$
b1 9
b1 =
b1 L$
0i$
0?"
09"
03"
0-"
0'"
0!"
0y
0s
0m
0g
0a
0[
0U
0O
0I
0C
17&
1t%
1"&
1,&
1*&
1&&
1$&
1|%
1x%
1v%
1p%
0l%
1`%
1^%
1P$
0h$
1;
1R%
10&
16&
0B&
1I&
1N&
b11110011 [%
1U&
1Z&
1-&
0+&
1'&
0%&
1!&
0}%
1y%
0w%
1s%
0q%
1m%
1g%
1a%
0_%
0P%
1R$
1X$
1^$
1d$
1j$
1p$
1v$
1|$
1$%
1*%
10%
16%
1<%
1B%
1H%
1N%
0:
0/&
12&
18&
1>&
0A&
1D&
0G&
1J&
0M&
1P&
0S&
1V&
0Y&
1\&
0Y%
0-
0&
0(
#49
1&
#50
1F
0@
1G
0A
1D
0>
1W$
b10 9
b10 =
b10 L$
0Q$
1V$
0P$
1S$
0M$
1R#
b10 8
b10 G#
b10 J$
0L#
1Q#
0K#
0p%
0^%
1N#
0H#
0,&
0&&
0~%
0x%
0r%
1d%
0`%
1Y"
b10 7
b10 A"
b10 E#
0T"
0-&
1+&
0'&
1%&
0!&
1}%
0y%
1w%
0s%
0m%
0g%
1e%
0a%
1V%
0\%
0Z"
1U"
1Y%
0+
b11110010 [%
01&
1Q"
0W"
1V"
1,
00&
1R"
1"
01
b1 3
b1 6
b1 <
b1 @"
1?
0&
#51
1&
#52
1@
0p
1F
1A
0q
1G
1>
0n
1D
1Q$
0]$
b11 9
b11 =
b11 L$
1W$
1P$
0\$
1V$
1M$
0Y$
1S$
1L#
0X#
b11 8
b11 G#
b11 J$
1R#
1K#
0W#
1Q#
1H#
1,&
1*&
1&&
1$&
1~%
1|%
1x%
1v%
1f%
1d%
0T#
1N#
1T"
1-&
0+&
1'&
0%&
1!&
0}%
1y%
0w%
1s%
1m%
1g%
0e%
1a%
0V%
0|"
b11 7
b11 A"
b11 E#
1Y"
0b%
1h%
0t%
0U"
0Y%
1+
1}"
1Z"
07&
1=&
b11100100 [%
0I&
0Q"
1W"
0,
0P"
1\"
0["
06&
1<&
0H&
0R"
0"
1X"
03&
19&
0E&
0?
b10 3
b10 6
b10 <
b10 @"
1E
0]%
1c%
b1000000011110010 #
b1000000011110010 0
b11110010 2
b11110010 X%
b11110010 Z%
0o%
0&
#53
1&
#54
1p
0F
1q
0G
0@
1n
0D
0A
1]$
0W$
0>
1\$
0V$
b100 9
b100 =
b100 L$
0Q$
1Y$
0S$
0P$
1X#
0R#
0M$
1W#
0Q#
b100 8
b100 G#
b100 J$
0L#
1T#
0N#
0K#
0v%
0d%
1|"
0Y"
0H#
0,&
0&&
0~%
0x%
1j%
0f%
0}"
1["
b100 7
b100 A"
b100 E#
0T"
0-&
1+&
0'&
1%&
0!&
1}%
0y%
0s%
0m%
1k%
0g%
0a%
1V%
1P"
0\"
1Z"
1U"
1Y%
0+
1Q"
0W"
1V"
1,
1R"
1"
b11 3
b11 6
b11 <
b11 @"
1?
0&
#55
1&
#56
1@
0v
1p
1A
0w
1q
1>
0t
1n
1Q$
0c$
b101 9
b101 =
b101 L$
1]$
1P$
0b$
1\$
1M$
0_$
1Y$
1L#
0^#
b101 8
b101 G#
b101 J$
1X#
1K#
0]#
1W#
1H#
1,&
1*&
1&&
1$&
1~%
1|%
1l%
1j%
0Z#
1T#
1T"
1-&
0+&
1'&
0%&
1!&
0}%
1y%
1s%
1m%
0k%
1g%
1a%
0V%
0##
b101 7
b101 A"
b101 E#
1|"
0h%
1n%
0z%
0U"
0Y%
1+
1$#
1}"
0=&
1C&
b11001000 [%
0O&
0Q"
1W"
0,
0P"
1\"
0I"
1!#
0~"
0<&
1B&
0N&
0R"
0"
0X"
1{"
09&
1?&
0K&
0?
0E
b100 3
b100 6
b100 <
b100 @"
1o
0c%
1i%
b1000000011100100 #
b1000000011100100 0
b11100100 2
b11100100 X%
b11100100 Z%
0u%
0&
#57
1&
#58
1F
0@
1G
0A
1D
0>
1W$
b110 9
b110 =
b110 L$
0Q$
1V$
0P$
1S$
0M$
1R#
b110 8
b110 G#
b110 J$
0L#
1Q#
0K#
0|%
0j%
1N#
0H#
0,&
0&&
0~%
1p%
0l%
1Y"
b110 7
b110 A"
b110 E#
0T"
0-&
1+&
0'&
1%&
0!&
0y%
0s%
1q%
0m%
0g%
0a%
1V%
0Z"
1U"
1Y%
0+
1Q"
0W"
1V"
1,
1R"
1"
b101 3
b101 6
b101 <
b101 @"
1?
0&
#59
1&
#60
0v
1p
1@
0w
1q
1F
1A
0t
1n
1G
1>
0c$
1]$
1D
1Q$
0b$
1\$
b111 9
b111 =
b111 L$
1W$
1P$
0_$
1Y$
1V$
1M$
0^#
1X#
1S$
1L#
0]#
1W#
b111 8
b111 G#
b111 J$
1R#
1K#
0Z#
1T#
1Q#
1H#
1,&
1*&
1&&
1$&
1r%
1p%
0##
1|"
1N#
1T"
1-&
0+&
1'&
0%&
1!&
1y%
1s%
0q%
1m%
1g%
1a%
0V%
1$#
0~"
b111 7
b111 A"
b111 E#
1Y"
0n%
1t%
0"&
0U"
0Y%
1+
0I"
1!#
1}"
1Z"
0C&
1I&
b10010000 [%
0U&
0Q"
1W"
0,
0P"
1\"
0["
0B&
1H&
0T&
0R"
0"
1X"
0?&
1E&
0Q&
0?
b110 3
b110 6
b110 <
b110 @"
1E
0i%
1o%
b1000000011001000 #
b1000000011001000 0
b11001000 2
b11001000 X%
b11001000 Z%
0{%
0&
#61
1&
#62
1v
0p
1w
0q
0F
1t
0n
0G
0@
1c$
0]$
0D
0A
1b$
0\$
0W$
0>
1_$
0Y$
0V$
b1000 9
b1000 =
b1000 L$
0Q$
1^#
0X#
0S$
0P$
1]#
0W#
0R#
0M$
1Z#
0T#
0Q#
b1000 8
b1000 G#
b1000 J$
0L#
1##
0|"
0N#
0K#
0$&
0p%
0$#
1~"
0Y"
0H#
0,&
0&&
1v%
0r%
1I"
0!#
1}"
1["
b1000 7
b1000 A"
b1000 E#
0T"
0-&
1+&
0'&
0!&
0y%
1w%
0s%
0m%
0g%
0a%
1V%
1P"
0\"
1Z"
1U"
1Y%
0+
1Q"
0W"
1V"
1,
1R"
1"
b111 3
b111 6
b111 <
b111 @"
1?
0&
#63
1&
#64
1@
0|
1v
1A
0}
1w
1>
0z
1t
1Q$
0i$
b1001 9
b1001 =
b1001 L$
1c$
1P$
0h$
1b$
1M$
0e$
1_$
1L#
0d#
b1001 8
b1001 G#
b1001 J$
1^#
1K#
0c#
1]#
1H#
1,&
1*&
1x%
1v%
0`#
1Z#
1T"
1-&
0+&
1'&
1!&
1y%
0w%
1s%
1m%
1g%
1a%
0V%
0(#
b1001 7
b1001 A"
b1001 E#
1##
0t%
1z%
0(&
0U"
0Y%
1+
1)#
1$#
0I&
1O&
b100000 [%
0[&
0Q"
1W"
0,
0P"
1\"
0I"
1!#
0H"
1&#
0%#
0H&
1N&
0Z&
0R"
0"
0X"
0{"
1"#
0E&
1K&
0W&
0?
0E
0o
b1000 3
b1000 6
b1000 <
b1000 @"
1u
0o%
1u%
b1000000010010000 #
b1000000010010000 0
b10010000 2
b10010000 X%
b10010000 Z%
0#&
0&
#65
1&
#66
1F
0@
1G
0A
1D
0>
1W$
b1010 9
b1010 =
b1010 L$
0Q$
1V$
0P$
1S$
0M$
1R#
b1010 8
b1010 G#
b1010 J$
0L#
1Q#
0K#
0*&
0v%
1N#
0H#
0,&
1|%
0x%
1Y"
b1010 7
b1010 A"
b1010 E#
0T"
0-&
0'&
0!&
1}%
0y%
0s%
0m%
0g%
0a%
1V%
0Z"
1U"
1Y%
0+
1Q"
0W"
1V"
1,
1R"
1"
b1001 3
b1001 6
b1001 <
b1001 @"
1?
0&
#67
1&
#68
1@
0p
1F
1A
0q
1G
1>
0n
1D
1Q$
0]$
b1011 9
b1011 =
b1011 L$
1W$
1P$
0\$
1V$
1M$
0Y$
1S$
1L#
0X#
b1011 8
b1011 G#
b1011 J$
1R#
1K#
0W#
1Q#
1H#
1~%
1|%
1S%
0T#
1N#
1T"
1-&
1'&
1!&
0}%
1y%
1s%
1m%
1g%
1a%
1T%
0V%
0|"
b1011 7
b1011 A"
b1011 E#
1Y"
0z%
1"&
0U"
0Y%
1+
1}"
1Z"
0O&
b1000000 [%
1U&
0Q"
1W"
0,
0P"
1\"
0["
0N&
1T&
1!
0R"
0"
1X"
0K&
1Q&
0$
0?
b1010 3
b1010 6
b1010 <
b1010 @"
1E
0u%
1{%
b1000000000100000 #
b1000000000100000 0
b100000 2
b100000 X%
b100000 Z%
0)&
0&
#69
1&
#70
1p
0F
1q
0G
0@
1n
0D
0A
1]$
0W$
0>
1\$
0V$
b1100 9
b1100 =
b1100 L$
0Q$
1Y$
0S$
0P$
1X#
0R#
0M$
1W#
0Q#
b1100 8
b1100 G#
b1100 J$
0L#
1T#
0N#
0K#
0|%
1|"
0Y"
0H#
1$&
0~%
1^%
1U%
0}"
1["
b1100 7
b1100 A"
b1100 E#
0T"
0-&
0'&
1%&
0!&
0y%
0s%
0m%
0g%
0a%
1_%
0T%
1V%
1\%
1P"
0\"
1Z"
1U"
1Y%
0+
b1000001 [%
11&
1Q"
0W"
1V"
1,
10&
1R"
1"
11
b1011 3
b1011 6
b1011 <
b1011 @"
1?
0&
#71
1&
#72
0|
1v
1@
0}
1w
1p
1A
0z
1t
1q
1>
0i$
1c$
1n
1Q$
0h$
1b$
b1101 9
b1101 =
b1101 L$
1]$
1P$
0e$
1_$
1\$
1M$
0d#
1^#
1Y$
1L#
0c#
1]#
b1101 8
b1101 G#
b1101 J$
1X#
1K#
0`#
1Z#
1W#
1H#
1&&
1$&
1`%
1^%
0U%
0(#
1##
1T#
1T"
1-&
1'&
0%&
1!&
1y%
1s%
1m%
1g%
1a%
0_%
1T%
0V%
1)#
0%#
b1101 7
b1101 A"
b1101 E#
1|"
1b%
0"&
1(&
0U"
0Y%
1+
0H"
1&#
1$#
1}"
17&
0U&
b10000011 [%
1[&
0Q"
1W"
0,
0P"
1\"
0I"
1!#
0~"
16&
0T&
1Z&
0R"
0"
0X"
1{"
13&
0Q&
1W&
0?
0E
b1100 3
b1100 6
b1100 <
b1100 @"
1o
1]%
0{%
b1000000001000001 #
b1000000001000001 0
b1000001 2
b1000001 X%
b1000001 Z%
1#&
0&
#73
1&
#74
1F
0@
1G
0A
1D
0>
1W$
b1110 9
b1110 =
b1110 L$
0Q$
1V$
0P$
1S$
0M$
1R#
b1110 8
b1110 G#
b1110 J$
0L#
1Q#
0K#
0$&
1N#
0H#
1*&
0&&
1d%
0`%
1U%
1Y"
b1110 7
b1110 A"
b1110 E#
0T"
0-&
1+&
0'&
0!&
0y%
0s%
0m%
0g%
1e%
0a%
1_%
0T%
1V%
0Z"
1U"
1Y%
0+
1Q"
0W"
1V"
1,
1R"
1"
b1101 3
b1101 6
b1101 <
b1101 @"
1?
0&
#75
1&
#76
0|
1v
0}
1w
1p
1@
0z
1t
1q
1F
1A
0i$
1c$
1n
1G
1>
0h$
1b$
1]$
1D
1Q$
0e$
1_$
1\$
b1111 9
b1111 =
b1111 L$
1W$
1P$
0d#
1^#
1Y$
1V$
1M$
0c#
1]#
1X#
1S$
1L#
0`#
1Z#
1W#
b1111 8
b1111 G#
b1111 J$
1R#
1K#
0S%
0(#
1##
1T#
1Q#
1H#
1,&
1*&
1f%
1d%
1`%
1^%
0U%
1)#
0%#
1|"
1N#
1T"
1-&
0+&
1'&
1!&
1y%
1s%
1m%
1g%
0e%
1a%
0_%
0V%
0H"
1&#
1$#
0~"
b1111 7
b1111 A"
b1111 E#
1Y"
1h%
0(&
0U"
0Y%
1+
0I"
1!#
1}"
1Z"
1=&
b111 [%
0[&
0Q"
1W"
0,
0P"
1\"
0["
1<&
0Z&
0!
0R"
0"
1X"
19&
0W&
1$
0?
b1110 3
b1110 6
b1110 <
b1110 @"
1E
1c%
0#&
b1000000010000011 #
b1000000010000011 0
b10000011 2
b10000011 X%
b10000011 Z%
1)&
0&
#77
1&
#78
1|
0v
1}
0w
0p
1z
0t
0q
0F
1i$
0c$
0n
0G
0@
1h$
0b$
0]$
0D
0A
1e$
0_$
0\$
0W$
0>
1d#
0^#
0Y$
0V$
b10000 9
b10000 =
b10000 L$
0Q$
1c#
0]#
0X#
0S$
0P$
1`#
0Z#
0W#
0R#
0M$
1(#
0##
0T#
0Q#
b10000 8
b10000 G#
b10000 J$
0L#
0)#
1%#
0|"
0N#
0K#
0*&
0^%
1H"
0&#
1$#
1~"
0Y"
0H#
0R%
0,&
1j%
0f%
0`%
1I"
0!#
1}"
1["
b10000 7
b10000 A"
b10000 E#
0T"
0-&
0'&
0!&
0y%
0s%
0m%
1k%
0g%
1e%
0a%
1V%
0\%
1P"
0\"
1Z"
1U"
1Y%
0+
b110 [%
01&
1Q"
0W"
1V"
1.
1,
00&
1R"
1"
01
b1111 3
b1111 6
b1111 <
b1111 @"
1?
0&
#79
1&
#80
1>
0""
1z
1Q$
0o$
b10001 9
b10001 =
b10001 L$
1i$
1P$
0n$
1h$
1M$
0k$
1e$
1L#
0j#
b10001 8
b10001 G#
b10001 J$
1d#
1K#
0i#
1c#
1H#
0f#
1`#
1l%
1j%
1f%
1d%
1T"
0-#
b10001 7
b10001 A"
b10001 E#
1(#
0b%
1n%
1~
1|
1-&
1'&
1!&
1y%
1s%
1m%
0k%
1g%
0e%
1a%
0U"
1.#
1)#
07&
b1100 [%
1C&
1?"
19"
13"
1-"
1'"
1!"
0}
1y
1s
1m
1g
1a
1[
1U
1O
1I
1C
0Y%
0Q"
1W"
0.
0P"
1\"
0I"
1!#
0H"
1&#
0G"
1+#
0*#
06&
1B&
1!
0;
0,
1*
0R"
0"
0X"
0{"
0"#
1'#
03&
1?&
0$
0/
0?
0E
0o
0u
b10000 3
b10000 6
b10000 <
b10000 @"
1{
0]%
1i%
b110 #
b110 0
b110 2
b110 X%
b110 Z%
0)&
0&
#81
1&
#82
0&
#83
1&
#84
0&
#85
1&
#86
0&
#87
1&
#88
0&
